%!PS-Adobe-3.0 EPSF-3.0
%%Creator: MATLAB, The Mathworks, Inc. Version 7.8.0.347 (R2009a). Operating System: Microsoft Windows XP.
%%Title: C:\Documents and Settings\user\Bureau\Signaux_imran_new\pca_sub_1_temp_des_decim_filter.eps
%%CreationDate: 05/13/2011  13:38:43
%%DocumentNeededFonts: Helvetica
%%DocumentProcessColors: Cyan Magenta Yellow Black
%%LanguageLevel: 2
%%Pages: 1
%%BoundingBox:    87   262   507   578
%%EndComments

%%BeginProlog
% MathWorks dictionary
/MathWorks 160 dict begin
% definition operators
/bdef {bind def} bind def
/ldef {load def} bind def
/xdef {exch def} bdef
/xstore {exch store} bdef
% operator abbreviations
/c  /clip ldef
/cc /concat ldef
/cp /closepath ldef
/gr /grestore ldef
/gs /gsave ldef
/mt /moveto ldef
/np /newpath ldef
/cm /currentmatrix ldef
/sm /setmatrix ldef
/rm /rmoveto ldef
/rl /rlineto ldef
/s {show newpath} bdef
/sc {setcmykcolor} bdef
/sr /setrgbcolor ldef
/sg /setgray ldef
/w /setlinewidth ldef
/j /setlinejoin ldef
/cap /setlinecap ldef
/rc {rectclip} bdef
/rf {rectfill} bdef
% page state control
/pgsv () def
/bpage {/pgsv save def} bdef
/epage {pgsv restore} bdef
/bplot /gsave ldef
/eplot {stroke grestore} bdef
% orientation switch
/portraitMode 0 def /landscapeMode 1 def /rotateMode 2 def
% coordinate system mappings
/dpi2point 0 def
% font control
/FontSize 0 def
/FMS {/FontSize xstore findfont [FontSize 0 0 FontSize neg 0 0]
  makefont setfont} bdef
/ISOLatin1Encoding where {pop /WindowsLatin1Encoding 256 array bdef
ISOLatin1Encoding WindowsLatin1Encoding copy pop
/.notdef/.notdef/quotesinglbase/florin/quotedblbase/ellipsis/dagger
/daggerdbl/circumflex/perthousand/Scaron/guilsinglleft/OE/.notdef/.notdef
/.notdef/.notdef/quoteleft/quoteright/quotedblleft/quotedblright/bullet
/endash/emdash/tilde/trademark/scaron/guilsinglright/oe/.notdef/.notdef
/Ydieresis WindowsLatin1Encoding 128 32 getinterval astore pop}
{/WindowsLatin1Encoding StandardEncoding bdef} ifelse
/reencode {exch dup where {pop load} {pop StandardEncoding} ifelse
  exch dup 3 1 roll findfont dup length dict begin
  { 1 index /FID ne {def}{pop pop} ifelse } forall
  /Encoding exch def currentdict end definefont pop} bdef
/isroman {findfont /CharStrings get /Agrave known} bdef
/FMSR {3 1 roll 1 index dup isroman {reencode} {pop pop} ifelse
  exch FMS} bdef
/csm {1 dpi2point div -1 dpi2point div scale neg translate
 dup landscapeMode eq {pop -90 rotate}
  {rotateMode eq {90 rotate} if} ifelse} bdef
% line types: solid, dotted, dashed, dotdash
/SO { [] 0 setdash } bdef
/DO { [.5 dpi2point mul 4 dpi2point mul] 0 setdash } bdef
/DA { [6 dpi2point mul] 0 setdash } bdef
/DD { [.5 dpi2point mul 4 dpi2point mul 6 dpi2point mul 4
  dpi2point mul] 0 setdash } bdef
% macros for lines and objects
/L {lineto stroke} bdef
/MP {3 1 roll moveto 1 sub {rlineto} repeat} bdef
/AP {{rlineto} repeat} bdef
/PDlw -1 def
/W {/PDlw currentlinewidth def setlinewidth} def
/PP {closepath eofill} bdef
/DP {closepath stroke} bdef
/MR {4 -2 roll moveto dup  0 exch rlineto exch 0 rlineto
  neg 0 exch rlineto closepath} bdef
/FR {MR stroke} bdef
/PR {MR fill} bdef
/L1i {{currentfile picstr readhexstring pop} image} bdef
/tMatrix matrix def
/MakeOval {newpath tMatrix currentmatrix pop translate scale
0 0 1 0 360 arc tMatrix setmatrix} bdef
/FO {MakeOval stroke} bdef
/PO {MakeOval fill} bdef
/PD {currentlinewidth 2 div 0 360 arc fill
   PDlw -1 eq not {PDlw w /PDlw -1 def} if} def
/FA {newpath tMatrix currentmatrix pop translate scale
  0 0 1 5 -2 roll arc tMatrix setmatrix stroke} bdef
/PA {newpath tMatrix currentmatrix pop	translate 0 0 moveto scale
  0 0 1 5 -2 roll arc closepath tMatrix setmatrix fill} bdef
/FAn {newpath tMatrix currentmatrix pop translate scale
  0 0 1 5 -2 roll arcn tMatrix setmatrix stroke} bdef
/PAn {newpath tMatrix currentmatrix pop translate 0 0 moveto scale
  0 0 1 5 -2 roll arcn closepath tMatrix setmatrix fill} bdef
/vradius 0 def /hradius 0 def /lry 0 def
/lrx 0 def /uly 0 def /ulx 0 def /rad 0 def
/MRR {/vradius xdef /hradius xdef /lry xdef /lrx xdef /uly xdef
  /ulx xdef newpath tMatrix currentmatrix pop ulx hradius add uly
  vradius add translate hradius vradius scale 0 0 1 180 270 arc 
  tMatrix setmatrix lrx hradius sub uly vradius add translate
  hradius vradius scale 0 0 1 270 360 arc tMatrix setmatrix
  lrx hradius sub lry vradius sub translate hradius vradius scale
  0 0 1 0 90 arc tMatrix setmatrix ulx hradius add lry vradius sub
  translate hradius vradius scale 0 0 1 90 180 arc tMatrix setmatrix
  closepath} bdef
/FRR {MRR stroke } bdef
/PRR {MRR fill } bdef
/MlrRR {/lry xdef /lrx xdef /uly xdef /ulx xdef /rad lry uly sub 2 div def
  newpath tMatrix currentmatrix pop ulx rad add uly rad add translate
  rad rad scale 0 0 1 90 270 arc tMatrix setmatrix lrx rad sub lry rad
  sub translate rad rad scale 0 0 1 270 90 arc tMatrix setmatrix
  closepath} bdef
/FlrRR {MlrRR stroke } bdef
/PlrRR {MlrRR fill } bdef
/MtbRR {/lry xdef /lrx xdef /uly xdef /ulx xdef /rad lrx ulx sub 2 div def
  newpath tMatrix currentmatrix pop ulx rad add uly rad add translate
  rad rad scale 0 0 1 180 360 arc tMatrix setmatrix lrx rad sub lry rad
  sub translate rad rad scale 0 0 1 0 180 arc tMatrix setmatrix
  closepath} bdef
/FtbRR {MtbRR stroke } bdef
/PtbRR {MtbRR fill } bdef
/stri 6 array def /dtri 6 array def
/smat 6 array def /dmat 6 array def
/tmat1 6 array def /tmat2 6 array def /dif 3 array def
/asub {/ind2 exch def /ind1 exch def dup dup
  ind1 get exch ind2 get sub exch } bdef
/tri_to_matrix {
  2 0 asub 3 1 asub 4 0 asub 5 1 asub
  dup 0 get exch 1 get 7 -1 roll astore } bdef
/compute_transform {
  dmat dtri tri_to_matrix tmat1 invertmatrix 
  smat stri tri_to_matrix tmat2 concatmatrix } bdef
/ds {stri astore pop} bdef
/dt {dtri astore pop} bdef
/db {2 copy /cols xdef /rows xdef mul dup 3 mul string
  currentfile 
  3 index 0 eq {/ASCIIHexDecode filter}
  {/ASCII85Decode filter 3 index 2 eq {/RunLengthDecode filter} if }
  ifelse exch readstring pop
  dup 0 3 index getinterval /rbmap xdef
  dup 2 index dup getinterval /gbmap xdef
  1 index dup 2 mul exch getinterval /bbmap xdef pop pop}bdef
/it {gs np dtri aload pop moveto lineto lineto cp c
  cols rows 8 compute_transform 
  rbmap gbmap bbmap true 3 colorimage gr}bdef
/il {newpath moveto lineto stroke}bdef
currentdict end def
%%EndProlog

%%BeginSetup
MathWorks begin

0 cap

end
%%EndSetup

%%Page: 1 1
%%BeginPageSetup
%%PageBoundingBox:    87   262   507   578
MathWorks begin
bpage
%%EndPageSetup

%%BeginObject: obj1
bplot

/dpi2point 12 def
portraitMode 1044 6936 csm

    0     0  5045  3782 rc
85 dict begin %Colortable dictionary
/c0 { 0.000000 0.000000 0.000000 sr} bdef
/c1 { 1.000000 1.000000 1.000000 sr} bdef
/c2 { 0.900000 0.000000 0.000000 sr} bdef
/c3 { 0.000000 0.820000 0.000000 sr} bdef
/c4 { 0.000000 0.000000 0.800000 sr} bdef
/c5 { 0.910000 0.820000 0.320000 sr} bdef
/c6 { 1.000000 0.260000 0.820000 sr} bdef
/c7 { 0.000000 0.820000 0.820000 sr} bdef
c0
1 j
1 sg
   0    0 5046 3783 rf
6 w
0 3045 3910 0 0 -3045 656 3329 4 MP
PP
-3910 0 0 3045 3910 0 0 -3045 656 3329 5 MP stroke
4 w
DO
SO
6 w
0 sg
 656 3329 mt 4566 3329 L
 656 3329 mt  656  284 L
 858 3329 mt  858 3289 L
%%IncludeResource: font Helvetica
/Helvetica /WindowsLatin1Encoding 192 FMSR

 640 3541 mt 
(-15) s
1430 3329 mt 1430 3289 L
1212 3541 mt 
(-10) s
2001 3329 mt 2001 3289 L
1836 3541 mt 
(-5) s
2572 3329 mt 2572 3289 L
2519 3541 mt 
(0) s
3144 3329 mt 3144 3289 L
3091 3541 mt 
(5) s
3715 3329 mt 3715 3289 L
3609 3541 mt 
(10) s
4286 3329 mt 4286 3289 L
4180 3541 mt 
(15) s
 656 2767 mt  695 2767 L
 403 2838 mt 
(-5) s
 656 2039 mt  695 2039 L
 515 2110 mt 
(0) s
 656 1312 mt  695 1312 L
 515 1383 mt 
(5) s
 656  584 mt  695  584 L
 408  655 mt 
(10) s
gs 656 284 3911 3046 rc
18 w
gr

18 w
/c8 { 1.000000 0.000000 0.000000 sr} bdef
c8
  36   36 2134 2373 FO
  36   36 2585 2109 FO
  36   36 1883 2161 FO
  36   36 2654 2653 FO
  36   36 1329 2023 FO
  36   36 3063 2856 FO
  36   36 2494 2614 FO
  36   36 3032 2758 FO
  36   36 2892 2098 FO
  36   36 2579 2113 FO
  36   36 2089 1726 FO
  36   36 2008 2505 FO
  36   36 2670 2167 FO
  36   36 2601 2092 FO
  36   36 2859 2313 FO
  36   36 2012 1521 FO
  36   36  798 1153 FO
  36   36 2811 2202 FO
  36   36 3063 1328 FO
  36   36 2652 2158 FO
  36   36 2795 2360 FO
  36   36 3432 1216 FO
  36   36 2356 2137 FO
  36   36 3413 1030 FO
  36   36 2632 1348 FO
  36   36 3012 2558 FO
  36   36 2741 2649 FO
  36   36 2272 2175 FO
  36   36 2398 2057 FO
  36   36 2451 2241 FO
  36   36 2589 1714 FO
  36   36 2043 2235 FO
  36   36 2599 1794 FO
  36   36 2573 1861 FO
  36   36 2479 2541 FO
  36   36 2255 1445 FO
  36   36 2969 2403 FO
  36   36  656  848 FO
  36   36 2521 1974 FO
  36   36 2935 2745 FO
  36   36 2607 2385 FO
  36   36 2721 1912 FO
  36   36 3242 2187 FO
  36   36 3176 2542 FO
  36   36 2394 2282 FO
  36   36 2413 2394 FO
  36   36 1712 1603 FO
  36   36 2927 1564 FO
  36   36 1528 1503 FO
  36   36 3486 2193 FO
  36   36 2544 2606 FO
  36   36 2371 1780 FO
  36   36 2802 2271 FO
  36   36 2279 1929 FO
  36   36 2090 1711 FO
  36   36 2726 2369 FO
  36   36 2372 2339 FO
  36   36 2009 1863 FO
  36   36 2120 1844 FO
  36   36 2348 2608 FO
  36   36 3353 2651 FO
  36   36 2799 1818 FO
  36   36 2613 2136 FO
  36   36 2776 2547 FO
  36   36 1821 1761 FO
  36   36 2109 1363 FO
  36   36 1823 1658 FO
  36   36 2466 1762 FO
  36   36 2250 2022 FO
  36   36 1664 1420 FO
  36   36 2158 1912 FO
  36   36 1586 2055 FO
  36   36 2281 2483 FO
  36   36 2080 3152 FO
  36   36 2476 2476 FO
  36   36 2212 1974 FO
  36   36 2333 2152 FO
  36   36 2668 2081 FO
  36   36 2451 1695 FO
  36   36 3840 2536 FO
  36   36 3161 2514 FO
  36   36 1820 2295 FO
  36   36 1888 2154 FO
  36   36  997 1626 FO
  36   36 2903 2812 FO
  36   36 1340 1312 FO
  36   36 2370 2322 FO
  36   36 1561 1753 FO
  36   36 2465 1960 FO
  36   36 1438 1374 FO
  36   36 2134 2373 FO
gs 656 284 3911 3046 rc
gr

/c9 { 0.000000 0.000000 1.000000 sr} bdef
c9
2277 1963 mt 2349 1963 L
2313 1927 mt 2313 1999 L
2480 2079 mt 2552 2079 L
2516 2043 mt 2516 2115 L
4363  284 mt 4435  284 L
4399  248 mt 4399  320 L
2574 2180 mt 2646 2180 L
2610 2144 mt 2610 2216 L
1976 2390 mt 2048 2390 L
2012 2354 mt 2012 2426 L
2445 2280 mt 2517 2280 L
2481 2244 mt 2481 2316 L
2584 2218 mt 2656 2218 L
2620 2182 mt 2620 2254 L
3303 2703 mt 3375 2703 L
3339 2667 mt 3339 2739 L
2935 1092 mt 3007 1092 L
2971 1056 mt 2971 1128 L
3354 1245 mt 3426 1245 L
3390 1209 mt 3390 1281 L
2976 2844 mt 3048 2844 L
3012 2808 mt 3012 2880 L
2996 3329 mt 3068 3329 L
3032 3293 mt 3032 3365 L
3784  530 mt 3856  530 L
3820  494 mt 3820  566 L
2985 2731 mt 3057 2731 L
3021 2695 mt 3021 2767 L
2988 2930 mt 3060 2930 L
3024 2894 mt 3024 2966 L
3233 2467 mt 3305 2467 L
3269 2431 mt 3269 2503 L
2616 2127 mt 2688 2127 L
2652 2091 mt 2652 2163 L
2260 2567 mt 2332 2567 L
2296 2531 mt 2296 2603 L
3137 2408 mt 3209 2408 L
3173 2372 mt 3173 2444 L
1835 2330 mt 1907 2330 L
1871 2294 mt 1871 2366 L
3334 2018 mt 3406 2018 L
3370 1982 mt 3370 2054 L
4530 1888 mt 4602 1888 L
4566 1852 mt 4566 1924 L
2590 1488 mt 2662 1488 L
2626 1452 mt 2626 1524 L
4443  938 mt 4515  938 L
4479  902 mt 4479  974 L
2767 2707 mt 2839 2707 L
2803 2671 mt 2803 2743 L
2743 2064 mt 2815 2064 L
2779 2028 mt 2779 2100 L
4290 1129 mt 4362 1129 L
4326 1093 mt 4326 1165 L
3579  533 mt 3651  533 L
3615  497 mt 3615  569 L
2339 2095 mt 2411 2095 L
2375 2059 mt 2375 2131 L
2986 1239 mt 3058 1239 L
3022 1203 mt 3022 1275 L
2277 1963 mt 2349 1963 L
2313 1927 mt 2313 1999 L
gs 656 284 3911 3046 rc
gr

0 sg
2391 3737 mt 
(48 %) s
 305 2026 mt  -90 rotate
(20 %) s
90 rotate
6 w

end %%Color Dict

eplot
%%EndObject

epage
end

showpage

%%Trailer
%%EOF
