%!PS-Adobe-3.0 EPSF-3.0
%%Creator: MATLAB, The Mathworks, Inc. Version 7.8.0.347 (R2009a). Operating System: Microsoft Windows XP.
%%Title: C:\Documents and Settings\user\Bureau\Signaux_imran_new\pca_sub_1_all_marg.eps
%%CreationDate: 05/13/2011  13:37:30
%%DocumentNeededFonts: Helvetica
%%DocumentProcessColors: Cyan Magenta Yellow Black
%%LanguageLevel: 2
%%Pages: 1
%%BoundingBox:    87   262   507   578
%%EndComments

%%BeginProlog
% MathWorks dictionary
/MathWorks 160 dict begin
% definition operators
/bdef {bind def} bind def
/ldef {load def} bind def
/xdef {exch def} bdef
/xstore {exch store} bdef
% operator abbreviations
/c  /clip ldef
/cc /concat ldef
/cp /closepath ldef
/gr /grestore ldef
/gs /gsave ldef
/mt /moveto ldef
/np /newpath ldef
/cm /currentmatrix ldef
/sm /setmatrix ldef
/rm /rmoveto ldef
/rl /rlineto ldef
/s {show newpath} bdef
/sc {setcmykcolor} bdef
/sr /setrgbcolor ldef
/sg /setgray ldef
/w /setlinewidth ldef
/j /setlinejoin ldef
/cap /setlinecap ldef
/rc {rectclip} bdef
/rf {rectfill} bdef
% page state control
/pgsv () def
/bpage {/pgsv save def} bdef
/epage {pgsv restore} bdef
/bplot /gsave ldef
/eplot {stroke grestore} bdef
% orientation switch
/portraitMode 0 def /landscapeMode 1 def /rotateMode 2 def
% coordinate system mappings
/dpi2point 0 def
% font control
/FontSize 0 def
/FMS {/FontSize xstore findfont [FontSize 0 0 FontSize neg 0 0]
  makefont setfont} bdef
/ISOLatin1Encoding where {pop /WindowsLatin1Encoding 256 array bdef
ISOLatin1Encoding WindowsLatin1Encoding copy pop
/.notdef/.notdef/quotesinglbase/florin/quotedblbase/ellipsis/dagger
/daggerdbl/circumflex/perthousand/Scaron/guilsinglleft/OE/.notdef/.notdef
/.notdef/.notdef/quoteleft/quoteright/quotedblleft/quotedblright/bullet
/endash/emdash/tilde/trademark/scaron/guilsinglright/oe/.notdef/.notdef
/Ydieresis WindowsLatin1Encoding 128 32 getinterval astore pop}
{/WindowsLatin1Encoding StandardEncoding bdef} ifelse
/reencode {exch dup where {pop load} {pop StandardEncoding} ifelse
  exch dup 3 1 roll findfont dup length dict begin
  { 1 index /FID ne {def}{pop pop} ifelse } forall
  /Encoding exch def currentdict end definefont pop} bdef
/isroman {findfont /CharStrings get /Agrave known} bdef
/FMSR {3 1 roll 1 index dup isroman {reencode} {pop pop} ifelse
  exch FMS} bdef
/csm {1 dpi2point div -1 dpi2point div scale neg translate
 dup landscapeMode eq {pop -90 rotate}
  {rotateMode eq {90 rotate} if} ifelse} bdef
% line types: solid, dotted, dashed, dotdash
/SO { [] 0 setdash } bdef
/DO { [.5 dpi2point mul 4 dpi2point mul] 0 setdash } bdef
/DA { [6 dpi2point mul] 0 setdash } bdef
/DD { [.5 dpi2point mul 4 dpi2point mul 6 dpi2point mul 4
  dpi2point mul] 0 setdash } bdef
% macros for lines and objects
/L {lineto stroke} bdef
/MP {3 1 roll moveto 1 sub {rlineto} repeat} bdef
/AP {{rlineto} repeat} bdef
/PDlw -1 def
/W {/PDlw currentlinewidth def setlinewidth} def
/PP {closepath eofill} bdef
/DP {closepath stroke} bdef
/MR {4 -2 roll moveto dup  0 exch rlineto exch 0 rlineto
  neg 0 exch rlineto closepath} bdef
/FR {MR stroke} bdef
/PR {MR fill} bdef
/L1i {{currentfile picstr readhexstring pop} image} bdef
/tMatrix matrix def
/MakeOval {newpath tMatrix currentmatrix pop translate scale
0 0 1 0 360 arc tMatrix setmatrix} bdef
/FO {MakeOval stroke} bdef
/PO {MakeOval fill} bdef
/PD {currentlinewidth 2 div 0 360 arc fill
   PDlw -1 eq not {PDlw w /PDlw -1 def} if} def
/FA {newpath tMatrix currentmatrix pop translate scale
  0 0 1 5 -2 roll arc tMatrix setmatrix stroke} bdef
/PA {newpath tMatrix currentmatrix pop	translate 0 0 moveto scale
  0 0 1 5 -2 roll arc closepath tMatrix setmatrix fill} bdef
/FAn {newpath tMatrix currentmatrix pop translate scale
  0 0 1 5 -2 roll arcn tMatrix setmatrix stroke} bdef
/PAn {newpath tMatrix currentmatrix pop translate 0 0 moveto scale
  0 0 1 5 -2 roll arcn closepath tMatrix setmatrix fill} bdef
/vradius 0 def /hradius 0 def /lry 0 def
/lrx 0 def /uly 0 def /ulx 0 def /rad 0 def
/MRR {/vradius xdef /hradius xdef /lry xdef /lrx xdef /uly xdef
  /ulx xdef newpath tMatrix currentmatrix pop ulx hradius add uly
  vradius add translate hradius vradius scale 0 0 1 180 270 arc 
  tMatrix setmatrix lrx hradius sub uly vradius add translate
  hradius vradius scale 0 0 1 270 360 arc tMatrix setmatrix
  lrx hradius sub lry vradius sub translate hradius vradius scale
  0 0 1 0 90 arc tMatrix setmatrix ulx hradius add lry vradius sub
  translate hradius vradius scale 0 0 1 90 180 arc tMatrix setmatrix
  closepath} bdef
/FRR {MRR stroke } bdef
/PRR {MRR fill } bdef
/MlrRR {/lry xdef /lrx xdef /uly xdef /ulx xdef /rad lry uly sub 2 div def
  newpath tMatrix currentmatrix pop ulx rad add uly rad add translate
  rad rad scale 0 0 1 90 270 arc tMatrix setmatrix lrx rad sub lry rad
  sub translate rad rad scale 0 0 1 270 90 arc tMatrix setmatrix
  closepath} bdef
/FlrRR {MlrRR stroke } bdef
/PlrRR {MlrRR fill } bdef
/MtbRR {/lry xdef /lrx xdef /uly xdef /ulx xdef /rad lrx ulx sub 2 div def
  newpath tMatrix currentmatrix pop ulx rad add uly rad add translate
  rad rad scale 0 0 1 180 360 arc tMatrix setmatrix lrx rad sub lry rad
  sub translate rad rad scale 0 0 1 0 180 arc tMatrix setmatrix
  closepath} bdef
/FtbRR {MtbRR stroke } bdef
/PtbRR {MtbRR fill } bdef
/stri 6 array def /dtri 6 array def
/smat 6 array def /dmat 6 array def
/tmat1 6 array def /tmat2 6 array def /dif 3 array def
/asub {/ind2 exch def /ind1 exch def dup dup
  ind1 get exch ind2 get sub exch } bdef
/tri_to_matrix {
  2 0 asub 3 1 asub 4 0 asub 5 1 asub
  dup 0 get exch 1 get 7 -1 roll astore } bdef
/compute_transform {
  dmat dtri tri_to_matrix tmat1 invertmatrix 
  smat stri tri_to_matrix tmat2 concatmatrix } bdef
/ds {stri astore pop} bdef
/dt {dtri astore pop} bdef
/db {2 copy /cols xdef /rows xdef mul dup 3 mul string
  currentfile 
  3 index 0 eq {/ASCIIHexDecode filter}
  {/ASCII85Decode filter 3 index 2 eq {/RunLengthDecode filter} if }
  ifelse exch readstring pop
  dup 0 3 index getinterval /rbmap xdef
  dup 2 index dup getinterval /gbmap xdef
  1 index dup 2 mul exch getinterval /bbmap xdef pop pop}bdef
/it {gs np dtri aload pop moveto lineto lineto cp c
  cols rows 8 compute_transform 
  rbmap gbmap bbmap true 3 colorimage gr}bdef
/il {newpath moveto lineto stroke}bdef
currentdict end def
%%EndProlog

%%BeginSetup
MathWorks begin

0 cap

end
%%EndSetup

%%Page: 1 1
%%BeginPageSetup
%%PageBoundingBox:    87   262   507   578
MathWorks begin
bpage
%%EndPageSetup

%%BeginObject: obj1
bplot

/dpi2point 12 def
portraitMode 1044 6936 csm

    0     0  5045  3782 rc
85 dict begin %Colortable dictionary
/c0 { 0.000000 0.000000 0.000000 sr} bdef
/c1 { 1.000000 1.000000 1.000000 sr} bdef
/c2 { 0.900000 0.000000 0.000000 sr} bdef
/c3 { 0.000000 0.820000 0.000000 sr} bdef
/c4 { 0.000000 0.000000 0.800000 sr} bdef
/c5 { 0.910000 0.820000 0.320000 sr} bdef
/c6 { 1.000000 0.260000 0.820000 sr} bdef
/c7 { 0.000000 0.820000 0.820000 sr} bdef
c0
1 j
1 sg
   0    0 5046 3783 rf
6 w
0 3045 3911 0 0 -3045 655 3329 4 MP
PP
-3911 0 0 3045 3911 0 0 -3045 655 3329 5 MP stroke
4 w
DO
SO
6 w
0 sg
 655 3329 mt 4566 3329 L
 655 3329 mt  655  284 L
1528 3329 mt 1528 3289 L
%%IncludeResource: font Helvetica
/Helvetica /WindowsLatin1Encoding 192 FMSR

1475 3541 mt 
(0) s
2699 3329 mt 2699 3289 L
2646 3541 mt 
(5) s
3870 3329 mt 3870 3289 L
3764 3541 mt 
(10) s
 655 2989 mt  695 2989 L
 403 3060 mt 
(-4) s
 655 2311 mt  695 2311 L
 403 2382 mt 
(-2) s
 655 1634 mt  695 1634 L
 515 1705 mt 
(0) s
 655  956 mt  695  956 L
 515 1027 mt 
(2) s
gs 655 284 3912 3046 rc
18 w
gr

18 w
/c8 { 1.000000 0.000000 0.000000 sr} bdef
c8
  36   36 1278  284 FO
  36   36 1643 1180 FO
  36   36 1463  683 FO
  36   36 1143  296 FO
  36   36 1238  889 FO
  36   36 1127  748 FO
  36   36  931 1577 FO
  36   36 1157 1602 FO
  36   36  979 1562 FO
  36   36 1226 1674 FO
  36   36 1210 1830 FO
  36   36  762 1414 FO
  36   36 1132 1764 FO
  36   36  878 1817 FO
  36   36 1190 2072 FO
  36   36 1372 2449 FO
  36   36 1327 2364 FO
  36   36  856 2006 FO
  36   36 1829 2487 FO
  36   36 1108 1868 FO
  36   36 1178 1899 FO
  36   36 1540 2211 FO
  36   36 1168 1811 FO
  36   36 2436 2355 FO
  36   36 2221 2170 FO
  36   36  860 2016 FO
  36   36  753 1913 FO
  36   36 1437  655 FO
  36   36 1444  916 FO
  36   36 1264  698 FO
  36   36 2012  842 FO
  36   36 1230  810 FO
  36   36 1499 1058 FO
  36   36 1967 1210 FO
  36   36  825  804 FO
  36   36 2057 1097 FO
  36   36 1423  912 FO
  36   36 2824 1375 FO
  36   36 1664 1338 FO
  36   36 1545  753 FO
  36   36 1166  896 FO
  36   36 1617  748 FO
  36   36 1526 1290 FO
  36   36 1271 1153 FO
  36   36 1430 1070 FO
  36   36 1440 2111 FO
  36   36 1585 2592 FO
  36   36 1309 2064 FO
  36   36 1159 2463 FO
  36   36 1166 2284 FO
  36   36  692 2106 FO
  36   36 1112 2245 FO
  36   36 1260 2199 FO
  36   36 1128 2491 FO
  36   36 1235 2631 FO
  36   36  808 1557 FO
  36   36 1050 1870 FO
  36   36 1392 1058 FO
  36   36  948 2451 FO
  36   36  655 2301 FO
  36   36  744 2610 FO
  36   36 1255 2767 FO
  36   36 1706 2842 FO
  36   36 1202 1579 FO
  36   36 1475 1847 FO
  36   36 1517 1911 FO
  36   36 1458 2227 FO
  36   36 1229 1599 FO
  36   36  990 1846 FO
  36   36 1456 1776 FO
  36   36 1322 1313 FO
  36   36 1865 1637 FO
  36   36  758 2632 FO
  36   36 4566  567 FO
  36   36 1213 1094 FO
  36   36 1401 1548 FO
  36   36 1361 1444 FO
  36   36 1647 1330 FO
  36   36 1783  995 FO
  36   36 1731 1435 FO
  36   36 1431 1196 FO
  36   36 1375 1045 FO
  36   36 1092 1205 FO
  36   36 1386 1078 FO
  36   36  998  614 FO
  36   36 1838 2055 FO
  36   36 1103 1569 FO
  36   36 1142 1656 FO
  36   36 1286 1725 FO
  36   36 1407 1748 FO
  36   36 1278  284 FO
gs 655 284 3912 3046 rc
gr

/c9 { 0.000000 0.000000 1.000000 sr} bdef
c9
1062 1952 mt 1134 1952 L
1098 1916 mt 1098 1988 L
1315 1773 mt 1387 1773 L
1351 1737 mt 1351 1809 L
4133 2356 mt 4205 2356 L
4169 2320 mt 4169 2392 L
1292 2021 mt 1364 2021 L
1328 1985 mt 1328 2057 L
1038 1969 mt 1110 1969 L
1074 1933 mt 1074 2005 L
1249 2131 mt 1321 2131 L
1285 2095 mt 1285 2167 L
1081 2107 mt 1153 2107 L
1117 2071 mt 1117 2143 L
1077  724 mt 1149  724 L
1113  688 mt 1113  760 L
2692 1053 mt 2764 1053 L
2728 1017 mt 2728 1089 L
3075 1645 mt 3147 1645 L
3111 1609 mt 3111 1681 L
1120  996 mt 1192  996 L
1156  960 mt 1156 1032 L
1665  990 mt 1737  990 L
1701  954 mt 1701 1026 L
2717 1507 mt 2789 1507 L
2753 1471 mt 2753 1543 L
1394 1216 mt 1466 1216 L
1430 1180 mt 1430 1252 L
1324 1041 mt 1396 1041 L
1360 1005 mt 1360 1077 L
1640 1122 mt 1712 1122 L
1676 1086 mt 1676 1158 L
1388  827 mt 1460  827 L
1424  791 mt 1424  863 L
1156 2369 mt 1228 2369 L
1192 2333 mt 1192 2405 L
1339 1683 mt 1411 1683 L
1375 1647 mt 1375 1719 L
1225 1264 mt 1297 1264 L
1261 1228 mt 1261 1300 L
2859 1188 mt 2931 1188 L
2895 1152 mt 2895 1224 L
2129 2613 mt 2201 2613 L
2165 2577 mt 2165 2649 L
3110 2642 mt 3182 2642 L
3146 2606 mt 3146 2678 L
2871 3329 mt 2943 3329 L
2907 3293 mt 2907 3365 L
 950 2874 mt 1022 2874 L
 986 2838 mt  986 2910 L
2935 2644 mt 3007 2644 L
2971 2608 mt 2971 2680 L
3557 1779 mt 3629 1779 L
3593 1743 mt 3593 1815 L
3456 1663 mt 3528 1663 L
3492 1627 mt 3492 1699 L
1843 1658 mt 1915 1658 L
1879 1622 mt 1879 1694 L
2686 1007 mt 2758 1007 L
2722  971 mt 2722 1043 L
1062 1952 mt 1134 1952 L
1098 1916 mt 1098 1988 L
gs 655 284 3912 3046 rc
gr

0 sg
2390 3737 mt 
(44 %) s
 305 2026 mt  -90 rotate
(18 %) s
90 rotate
6 w

end %%Color Dict

eplot
%%EndObject

epage
end

showpage

%%Trailer
%%EOF
