%!PS-Adobe-3.0 EPSF-3.0
%%Creator: MATLAB, The Mathworks, Inc. Version 7.8.0.347 (R2009a). Operating System: Microsoft Windows XP.
%%Title: C:\Documents and Settings\user\Bureau\Signaux_imran_new\pca_sub_1_dwt_coeff_lf.eps
%%CreationDate: 05/13/2011  13:42:37
%%DocumentNeededFonts: Helvetica
%%DocumentProcessColors: Cyan Magenta Yellow Black
%%LanguageLevel: 2
%%Pages: 1
%%BoundingBox:    87   262   507   578
%%EndComments

%%BeginProlog
% MathWorks dictionary
/MathWorks 160 dict begin
% definition operators
/bdef {bind def} bind def
/ldef {load def} bind def
/xdef {exch def} bdef
/xstore {exch store} bdef
% operator abbreviations
/c  /clip ldef
/cc /concat ldef
/cp /closepath ldef
/gr /grestore ldef
/gs /gsave ldef
/mt /moveto ldef
/np /newpath ldef
/cm /currentmatrix ldef
/sm /setmatrix ldef
/rm /rmoveto ldef
/rl /rlineto ldef
/s {show newpath} bdef
/sc {setcmykcolor} bdef
/sr /setrgbcolor ldef
/sg /setgray ldef
/w /setlinewidth ldef
/j /setlinejoin ldef
/cap /setlinecap ldef
/rc {rectclip} bdef
/rf {rectfill} bdef
% page state control
/pgsv () def
/bpage {/pgsv save def} bdef
/epage {pgsv restore} bdef
/bplot /gsave ldef
/eplot {stroke grestore} bdef
% orientation switch
/portraitMode 0 def /landscapeMode 1 def /rotateMode 2 def
% coordinate system mappings
/dpi2point 0 def
% font control
/FontSize 0 def
/FMS {/FontSize xstore findfont [FontSize 0 0 FontSize neg 0 0]
  makefont setfont} bdef
/ISOLatin1Encoding where {pop /WindowsLatin1Encoding 256 array bdef
ISOLatin1Encoding WindowsLatin1Encoding copy pop
/.notdef/.notdef/quotesinglbase/florin/quotedblbase/ellipsis/dagger
/daggerdbl/circumflex/perthousand/Scaron/guilsinglleft/OE/.notdef/.notdef
/.notdef/.notdef/quoteleft/quoteright/quotedblleft/quotedblright/bullet
/endash/emdash/tilde/trademark/scaron/guilsinglright/oe/.notdef/.notdef
/Ydieresis WindowsLatin1Encoding 128 32 getinterval astore pop}
{/WindowsLatin1Encoding StandardEncoding bdef} ifelse
/reencode {exch dup where {pop load} {pop StandardEncoding} ifelse
  exch dup 3 1 roll findfont dup length dict begin
  { 1 index /FID ne {def}{pop pop} ifelse } forall
  /Encoding exch def currentdict end definefont pop} bdef
/isroman {findfont /CharStrings get /Agrave known} bdef
/FMSR {3 1 roll 1 index dup isroman {reencode} {pop pop} ifelse
  exch FMS} bdef
/csm {1 dpi2point div -1 dpi2point div scale neg translate
 dup landscapeMode eq {pop -90 rotate}
  {rotateMode eq {90 rotate} if} ifelse} bdef
% line types: solid, dotted, dashed, dotdash
/SO { [] 0 setdash } bdef
/DO { [.5 dpi2point mul 4 dpi2point mul] 0 setdash } bdef
/DA { [6 dpi2point mul] 0 setdash } bdef
/DD { [.5 dpi2point mul 4 dpi2point mul 6 dpi2point mul 4
  dpi2point mul] 0 setdash } bdef
% macros for lines and objects
/L {lineto stroke} bdef
/MP {3 1 roll moveto 1 sub {rlineto} repeat} bdef
/AP {{rlineto} repeat} bdef
/PDlw -1 def
/W {/PDlw currentlinewidth def setlinewidth} def
/PP {closepath eofill} bdef
/DP {closepath stroke} bdef
/MR {4 -2 roll moveto dup  0 exch rlineto exch 0 rlineto
  neg 0 exch rlineto closepath} bdef
/FR {MR stroke} bdef
/PR {MR fill} bdef
/L1i {{currentfile picstr readhexstring pop} image} bdef
/tMatrix matrix def
/MakeOval {newpath tMatrix currentmatrix pop translate scale
0 0 1 0 360 arc tMatrix setmatrix} bdef
/FO {MakeOval stroke} bdef
/PO {MakeOval fill} bdef
/PD {currentlinewidth 2 div 0 360 arc fill
   PDlw -1 eq not {PDlw w /PDlw -1 def} if} def
/FA {newpath tMatrix currentmatrix pop translate scale
  0 0 1 5 -2 roll arc tMatrix setmatrix stroke} bdef
/PA {newpath tMatrix currentmatrix pop	translate 0 0 moveto scale
  0 0 1 5 -2 roll arc closepath tMatrix setmatrix fill} bdef
/FAn {newpath tMatrix currentmatrix pop translate scale
  0 0 1 5 -2 roll arcn tMatrix setmatrix stroke} bdef
/PAn {newpath tMatrix currentmatrix pop translate 0 0 moveto scale
  0 0 1 5 -2 roll arcn closepath tMatrix setmatrix fill} bdef
/vradius 0 def /hradius 0 def /lry 0 def
/lrx 0 def /uly 0 def /ulx 0 def /rad 0 def
/MRR {/vradius xdef /hradius xdef /lry xdef /lrx xdef /uly xdef
  /ulx xdef newpath tMatrix currentmatrix pop ulx hradius add uly
  vradius add translate hradius vradius scale 0 0 1 180 270 arc 
  tMatrix setmatrix lrx hradius sub uly vradius add translate
  hradius vradius scale 0 0 1 270 360 arc tMatrix setmatrix
  lrx hradius sub lry vradius sub translate hradius vradius scale
  0 0 1 0 90 arc tMatrix setmatrix ulx hradius add lry vradius sub
  translate hradius vradius scale 0 0 1 90 180 arc tMatrix setmatrix
  closepath} bdef
/FRR {MRR stroke } bdef
/PRR {MRR fill } bdef
/MlrRR {/lry xdef /lrx xdef /uly xdef /ulx xdef /rad lry uly sub 2 div def
  newpath tMatrix currentmatrix pop ulx rad add uly rad add translate
  rad rad scale 0 0 1 90 270 arc tMatrix setmatrix lrx rad sub lry rad
  sub translate rad rad scale 0 0 1 270 90 arc tMatrix setmatrix
  closepath} bdef
/FlrRR {MlrRR stroke } bdef
/PlrRR {MlrRR fill } bdef
/MtbRR {/lry xdef /lrx xdef /uly xdef /ulx xdef /rad lrx ulx sub 2 div def
  newpath tMatrix currentmatrix pop ulx rad add uly rad add translate
  rad rad scale 0 0 1 180 360 arc tMatrix setmatrix lrx rad sub lry rad
  sub translate rad rad scale 0 0 1 0 180 arc tMatrix setmatrix
  closepath} bdef
/FtbRR {MtbRR stroke } bdef
/PtbRR {MtbRR fill } bdef
/stri 6 array def /dtri 6 array def
/smat 6 array def /dmat 6 array def
/tmat1 6 array def /tmat2 6 array def /dif 3 array def
/asub {/ind2 exch def /ind1 exch def dup dup
  ind1 get exch ind2 get sub exch } bdef
/tri_to_matrix {
  2 0 asub 3 1 asub 4 0 asub 5 1 asub
  dup 0 get exch 1 get 7 -1 roll astore } bdef
/compute_transform {
  dmat dtri tri_to_matrix tmat1 invertmatrix 
  smat stri tri_to_matrix tmat2 concatmatrix } bdef
/ds {stri astore pop} bdef
/dt {dtri astore pop} bdef
/db {2 copy /cols xdef /rows xdef mul dup 3 mul string
  currentfile 
  3 index 0 eq {/ASCIIHexDecode filter}
  {/ASCII85Decode filter 3 index 2 eq {/RunLengthDecode filter} if }
  ifelse exch readstring pop
  dup 0 3 index getinterval /rbmap xdef
  dup 2 index dup getinterval /gbmap xdef
  1 index dup 2 mul exch getinterval /bbmap xdef pop pop}bdef
/it {gs np dtri aload pop moveto lineto lineto cp c
  cols rows 8 compute_transform 
  rbmap gbmap bbmap true 3 colorimage gr}bdef
/il {newpath moveto lineto stroke}bdef
currentdict end def
%%EndProlog

%%BeginSetup
MathWorks begin

0 cap

end
%%EndSetup

%%Page: 1 1
%%BeginPageSetup
%%PageBoundingBox:    87   262   507   578
MathWorks begin
bpage
%%EndPageSetup

%%BeginObject: obj1
bplot

/dpi2point 12 def
portraitMode 1044 6936 csm

    0     0  5045  3782 rc
85 dict begin %Colortable dictionary
/c0 { 0.000000 0.000000 0.000000 sr} bdef
/c1 { 1.000000 1.000000 1.000000 sr} bdef
/c2 { 0.900000 0.000000 0.000000 sr} bdef
/c3 { 0.000000 0.820000 0.000000 sr} bdef
/c4 { 0.000000 0.000000 0.800000 sr} bdef
/c5 { 0.910000 0.820000 0.320000 sr} bdef
/c6 { 1.000000 0.260000 0.820000 sr} bdef
/c7 { 0.000000 0.820000 0.820000 sr} bdef
c0
1 j
1 sg
   0    0 5046 3783 rf
6 w
0 3082 3910 0 0 -3082 656 3366 4 MP
PP
-3910 0 0 3082 3910 0 0 -3082 656 3366 5 MP stroke
4 w
DO
SO
6 w
0 sg
 656 3366 mt 4566 3366 L
 656 3366 mt  656  284 L
1038 3366 mt 1038 3326 L
%%IncludeResource: font Helvetica
/Helvetica /WindowsLatin1Encoding 120 FMSR

 935 3511 mt 
(-6) s
1433 3366 mt 1433 3326 L
1330 3511 mt 
(-4) s
1828 3366 mt 1828 3326 L
1725 3511 mt 
(-2) s
2222 3366 mt 2222 3326 L
2189 3511 mt 
(0) s
2617 3366 mt 2617 3326 L
2584 3511 mt 
(2) s
3011 3366 mt 3011 3326 L
2978 3511 mt 
(4) s
3406 3366 mt 3406 3326 L
3373 3511 mt 
(6) s
3801 3366 mt 3801 3326 L
3768 3511 mt 
(8) s
4195 3366 mt 4195 3326 L
4129 3511 mt 
(10) s
 656 3236 mt  695 3236 L
 485 3280 mt 
(-4) s
 656 2889 mt  695 2889 L
 485 2933 mt 
(-3) s
 656 2542 mt  695 2542 L
 485 2586 mt 
(-2) s
 656 2196 mt  695 2196 L
 485 2240 mt 
(-1) s
 656 1849 mt  695 1849 L
 555 1893 mt 
(0) s
 656 1502 mt  695 1502 L
 555 1546 mt 
(1) s
 656 1155 mt  695 1155 L
 555 1199 mt 
(2) s
 656  808 mt  695  808 L
 555  852 mt 
(3) s
 656  461 mt  695  461 L
 555  505 mt 
(4) s
gs 656 284 3911 3083 rc
18 w
gr

18 w
/c8 { 1.000000 0.000000 0.000000 sr} bdef
c8
  36   36 1845 2146 FO
  36   36 2374 2928 FO
  36   36 1874 1744 FO
  36   36 1922 2433 FO
  36   36 1638 1596 FO
  36   36 1786 2363 FO
  36   36 1948 2395 FO
  36   36 1845 2106 FO
  36   36 2178 1811 FO
  36   36 2139 1876 FO
  36   36 2346 1884 FO
  36   36 1726 1888 FO
  36   36 1934 1613 FO
  36   36 2212 1921 FO
  36   36 2074 1993 FO
  36   36 2158  889 FO
  36   36 2035  476 FO
  36   36 2059 2210 FO
  36   36 3141 1604 FO
  36   36 2076 2209 FO
  36   36 2067 2441 FO
  36   36 3149 1174 FO
  36   36 2042 1948 FO
  36   36 3335 1074 FO
  36   36 3014 1531 FO
  36   36 1941 2339 FO
  36   36 1773 2142 FO
  36   36 2078 1975 FO
  36   36 2097 1233 FO
  36   36 1853 2334 FO
  36   36 2607 2564 FO
  36   36 1983 2025 FO
  36   36 2737 1849 FO
  36   36 2517 1562 FO
  36   36 1842 2219 FO
  36   36 2665 1535 FO
  36   36 1903 1794 FO
  36   36 2382  542 FO
  36   36 2241 1924 FO
  36   36 1847 2742 FO
  36   36 1892 1899 FO
  36   36 2225 1368 FO
  36   36 2302 2029 FO
  36   36 2051 2838 FO
  36   36 1810 1522 FO
  36   36 1910 2138 FO
  36   36 2104 1115 FO
  36   36 2586 1850 FO
  36   36 2165 1134 FO
  36   36 2332 1928 FO
  36   36 1733 2355 FO
  36   36 2139 1334 FO
  36   36 2060 1476 FO
  36   36 1993  962 FO
  36   36 2038 1129 FO
  36   36 2033 1713 FO
  36   36 1888 1580 FO
  36   36 1950 1131 FO
  36   36 2019  960 FO
  36   36 1823 2372 FO
  36   36 2074 2468 FO
  36   36 2476 1934 FO
  36   36 2524 3366 FO
  36   36 1920 1632 FO
  36   36 1977 1472 FO
  36   36 2320 1179 FO
  36   36 2073  984 FO
  36   36 2309 1888 FO
  36   36 2024 1306 FO
  36   36 2167  772 FO
  36   36 2088 1129 FO
  36   36 2395 2445 FO
  36   36 1617 1795 FO
  36   36  656  788 FO
  36   36 1811 2167 FO
  36   36 2090 1910 FO
  36   36 1991 1582 FO
  36   36 2355 2540 FO
  36   36 2407 1490 FO
  36   36 2342 1797 FO
  36   36 2166 2086 FO
  36   36 1894 2073 FO
  36   36 1965 2390 FO
  36   36 1808  593 FO
  36   36 1522 2713 FO
  36   36 2188 1264 FO
  36   36 1668 2112 FO
  36   36 2091 1029 FO
  36   36 2194 1771 FO
  36   36 2226  284 FO
  36   36 1845 2146 FO
gs 656 284 3911 3083 rc
gr

/c9 { 0.000000 0.000000 1.000000 sr} bdef
c9
2138 1626 mt 2210 1626 L
2174 1590 mt 2174 1662 L
2050 1244 mt 2122 1244 L
2086 1208 mt 2086 1280 L
4530 1668 mt 4602 1668 L
4566 1632 mt 4566 1704 L
1851 1377 mt 1923 1377 L
1887 1341 mt 1887 1413 L
1817 1236 mt 1889 1236 L
1853 1200 mt 1853 1272 L
1970 1135 mt 2042 1135 L
2006 1099 mt 2006 1171 L
2103 1832 mt 2175 1832 L
2139 1796 mt 2139 1868 L
2037 2300 mt 2109 2300 L
2073 2264 mt 2073 2336 L
3475 1834 mt 3547 1834 L
3511 1798 mt 3511 1870 L
3287 1966 mt 3359 1966 L
3323 1930 mt 3323 2002 L
1815 2882 mt 1887 2882 L
1851 2846 mt 1851 2918 L
1389 2823 mt 1461 2823 L
1425 2787 mt 1425 2859 L
3477  516 mt 3549  516 L
3513  480 mt 3513  552 L
1865 2735 mt 1937 2735 L
1901 2699 mt 1901 2771 L
1777 3212 mt 1849 3212 L
1813 3176 mt 1813 3248 L
2252 2617 mt 2324 2617 L
2288 2581 mt 2288 2653 L
2144 1774 mt 2216 1774 L
2180 1738 mt 2180 1810 L
1654 1694 mt 1726 1694 L
1690 1658 mt 1690 1730 L
2029 1955 mt 2101 1955 L
2065 1919 mt 2065 1991 L
1736 2136 mt 1808 2136 L
1772 2100 mt 1772 2172 L
2920 3311 mt 2992 3311 L
2956 3275 mt 2956 3347 L
2983 2071 mt 3055 2071 L
3019 2035 mt 3019 2107 L
3024 2517 mt 3096 2517 L
3060 2481 mt 3060 2553 L
3701 1837 mt 3773 1837 L
3737 1801 mt 3737 1873 L
1840 2817 mt 1912 2817 L
1876 2781 mt 1876 2853 L
2469 3218 mt 2541 3218 L
2505 3182 mt 2505 3254 L
4112 2881 mt 4184 2881 L
4148 2845 mt 4148 2917 L
3837 1590 mt 3909 1590 L
3873 1554 mt 3873 1626 L
2090 1897 mt 2162 1897 L
2126 1861 mt 2126 1933 L
3443 2333 mt 3515 2333 L
3479 2297 mt 3479 2369 L
2138 1626 mt 2210 1626 L
2174 1590 mt 2174 1662 L
gs 656 284 3911 3083 rc
gr

0 sg
2473 3654 mt 
(33 %) s
 403 1963 mt  -90 rotate
(14 %) s
90 rotate
6 w

end %%Color Dict

eplot
%%EndObject

epage
end

showpage

%%Trailer
%%EOF
