%!PS-Adobe-3.0 EPSF-3.0
%%Creator: MATLAB, The Mathworks, Inc. Version 7.8.0.347 (R2009a). Operating System: Microsoft Windows XP.
%%Title: C:\Documents and Settings\user\Bureau\Signaux_imran_new\pca_sub_1_marg_lf.eps
%%CreationDate: 05/13/2011  13:36:59
%%DocumentNeededFonts: Helvetica
%%DocumentProcessColors: Cyan Magenta Yellow Black
%%LanguageLevel: 2
%%Pages: 1
%%BoundingBox:    87   262   507   578
%%EndComments

%%BeginProlog
% MathWorks dictionary
/MathWorks 160 dict begin
% definition operators
/bdef {bind def} bind def
/ldef {load def} bind def
/xdef {exch def} bdef
/xstore {exch store} bdef
% operator abbreviations
/c  /clip ldef
/cc /concat ldef
/cp /closepath ldef
/gr /grestore ldef
/gs /gsave ldef
/mt /moveto ldef
/np /newpath ldef
/cm /currentmatrix ldef
/sm /setmatrix ldef
/rm /rmoveto ldef
/rl /rlineto ldef
/s {show newpath} bdef
/sc {setcmykcolor} bdef
/sr /setrgbcolor ldef
/sg /setgray ldef
/w /setlinewidth ldef
/j /setlinejoin ldef
/cap /setlinecap ldef
/rc {rectclip} bdef
/rf {rectfill} bdef
% page state control
/pgsv () def
/bpage {/pgsv save def} bdef
/epage {pgsv restore} bdef
/bplot /gsave ldef
/eplot {stroke grestore} bdef
% orientation switch
/portraitMode 0 def /landscapeMode 1 def /rotateMode 2 def
% coordinate system mappings
/dpi2point 0 def
% font control
/FontSize 0 def
/FMS {/FontSize xstore findfont [FontSize 0 0 FontSize neg 0 0]
  makefont setfont} bdef
/ISOLatin1Encoding where {pop /WindowsLatin1Encoding 256 array bdef
ISOLatin1Encoding WindowsLatin1Encoding copy pop
/.notdef/.notdef/quotesinglbase/florin/quotedblbase/ellipsis/dagger
/daggerdbl/circumflex/perthousand/Scaron/guilsinglleft/OE/.notdef/.notdef
/.notdef/.notdef/quoteleft/quoteright/quotedblleft/quotedblright/bullet
/endash/emdash/tilde/trademark/scaron/guilsinglright/oe/.notdef/.notdef
/Ydieresis WindowsLatin1Encoding 128 32 getinterval astore pop}
{/WindowsLatin1Encoding StandardEncoding bdef} ifelse
/reencode {exch dup where {pop load} {pop StandardEncoding} ifelse
  exch dup 3 1 roll findfont dup length dict begin
  { 1 index /FID ne {def}{pop pop} ifelse } forall
  /Encoding exch def currentdict end definefont pop} bdef
/isroman {findfont /CharStrings get /Agrave known} bdef
/FMSR {3 1 roll 1 index dup isroman {reencode} {pop pop} ifelse
  exch FMS} bdef
/csm {1 dpi2point div -1 dpi2point div scale neg translate
 dup landscapeMode eq {pop -90 rotate}
  {rotateMode eq {90 rotate} if} ifelse} bdef
% line types: solid, dotted, dashed, dotdash
/SO { [] 0 setdash } bdef
/DO { [.5 dpi2point mul 4 dpi2point mul] 0 setdash } bdef
/DA { [6 dpi2point mul] 0 setdash } bdef
/DD { [.5 dpi2point mul 4 dpi2point mul 6 dpi2point mul 4
  dpi2point mul] 0 setdash } bdef
% macros for lines and objects
/L {lineto stroke} bdef
/MP {3 1 roll moveto 1 sub {rlineto} repeat} bdef
/AP {{rlineto} repeat} bdef
/PDlw -1 def
/W {/PDlw currentlinewidth def setlinewidth} def
/PP {closepath eofill} bdef
/DP {closepath stroke} bdef
/MR {4 -2 roll moveto dup  0 exch rlineto exch 0 rlineto
  neg 0 exch rlineto closepath} bdef
/FR {MR stroke} bdef
/PR {MR fill} bdef
/L1i {{currentfile picstr readhexstring pop} image} bdef
/tMatrix matrix def
/MakeOval {newpath tMatrix currentmatrix pop translate scale
0 0 1 0 360 arc tMatrix setmatrix} bdef
/FO {MakeOval stroke} bdef
/PO {MakeOval fill} bdef
/PD {currentlinewidth 2 div 0 360 arc fill
   PDlw -1 eq not {PDlw w /PDlw -1 def} if} def
/FA {newpath tMatrix currentmatrix pop translate scale
  0 0 1 5 -2 roll arc tMatrix setmatrix stroke} bdef
/PA {newpath tMatrix currentmatrix pop	translate 0 0 moveto scale
  0 0 1 5 -2 roll arc closepath tMatrix setmatrix fill} bdef
/FAn {newpath tMatrix currentmatrix pop translate scale
  0 0 1 5 -2 roll arcn tMatrix setmatrix stroke} bdef
/PAn {newpath tMatrix currentmatrix pop translate 0 0 moveto scale
  0 0 1 5 -2 roll arcn closepath tMatrix setmatrix fill} bdef
/vradius 0 def /hradius 0 def /lry 0 def
/lrx 0 def /uly 0 def /ulx 0 def /rad 0 def
/MRR {/vradius xdef /hradius xdef /lry xdef /lrx xdef /uly xdef
  /ulx xdef newpath tMatrix currentmatrix pop ulx hradius add uly
  vradius add translate hradius vradius scale 0 0 1 180 270 arc 
  tMatrix setmatrix lrx hradius sub uly vradius add translate
  hradius vradius scale 0 0 1 270 360 arc tMatrix setmatrix
  lrx hradius sub lry vradius sub translate hradius vradius scale
  0 0 1 0 90 arc tMatrix setmatrix ulx hradius add lry vradius sub
  translate hradius vradius scale 0 0 1 90 180 arc tMatrix setmatrix
  closepath} bdef
/FRR {MRR stroke } bdef
/PRR {MRR fill } bdef
/MlrRR {/lry xdef /lrx xdef /uly xdef /ulx xdef /rad lry uly sub 2 div def
  newpath tMatrix currentmatrix pop ulx rad add uly rad add translate
  rad rad scale 0 0 1 90 270 arc tMatrix setmatrix lrx rad sub lry rad
  sub translate rad rad scale 0 0 1 270 90 arc tMatrix setmatrix
  closepath} bdef
/FlrRR {MlrRR stroke } bdef
/PlrRR {MlrRR fill } bdef
/MtbRR {/lry xdef /lrx xdef /uly xdef /ulx xdef /rad lrx ulx sub 2 div def
  newpath tMatrix currentmatrix pop ulx rad add uly rad add translate
  rad rad scale 0 0 1 180 360 arc tMatrix setmatrix lrx rad sub lry rad
  sub translate rad rad scale 0 0 1 0 180 arc tMatrix setmatrix
  closepath} bdef
/FtbRR {MtbRR stroke } bdef
/PtbRR {MtbRR fill } bdef
/stri 6 array def /dtri 6 array def
/smat 6 array def /dmat 6 array def
/tmat1 6 array def /tmat2 6 array def /dif 3 array def
/asub {/ind2 exch def /ind1 exch def dup dup
  ind1 get exch ind2 get sub exch } bdef
/tri_to_matrix {
  2 0 asub 3 1 asub 4 0 asub 5 1 asub
  dup 0 get exch 1 get 7 -1 roll astore } bdef
/compute_transform {
  dmat dtri tri_to_matrix tmat1 invertmatrix 
  smat stri tri_to_matrix tmat2 concatmatrix } bdef
/ds {stri astore pop} bdef
/dt {dtri astore pop} bdef
/db {2 copy /cols xdef /rows xdef mul dup 3 mul string
  currentfile 
  3 index 0 eq {/ASCIIHexDecode filter}
  {/ASCII85Decode filter 3 index 2 eq {/RunLengthDecode filter} if }
  ifelse exch readstring pop
  dup 0 3 index getinterval /rbmap xdef
  dup 2 index dup getinterval /gbmap xdef
  1 index dup 2 mul exch getinterval /bbmap xdef pop pop}bdef
/it {gs np dtri aload pop moveto lineto lineto cp c
  cols rows 8 compute_transform 
  rbmap gbmap bbmap true 3 colorimage gr}bdef
/il {newpath moveto lineto stroke}bdef
currentdict end def
%%EndProlog

%%BeginSetup
MathWorks begin

0 cap

end
%%EndSetup

%%Page: 1 1
%%BeginPageSetup
%%PageBoundingBox:    87   262   507   578
MathWorks begin
bpage
%%EndPageSetup

%%BeginObject: obj1
bplot

/dpi2point 12 def
portraitMode 1044 6936 csm

    0     0  5045  3782 rc
85 dict begin %Colortable dictionary
/c0 { 0.000000 0.000000 0.000000 sr} bdef
/c1 { 1.000000 1.000000 1.000000 sr} bdef
/c2 { 0.900000 0.000000 0.000000 sr} bdef
/c3 { 0.000000 0.820000 0.000000 sr} bdef
/c4 { 0.000000 0.000000 0.800000 sr} bdef
/c5 { 0.910000 0.820000 0.320000 sr} bdef
/c6 { 1.000000 0.260000 0.820000 sr} bdef
/c7 { 0.000000 0.820000 0.820000 sr} bdef
c0
1 j
1 sg
   0    0 5046 3783 rf
6 w
0 3046 3910 0 0 -3046 656 3329 4 MP
PP
-3910 0 0 3046 3910 0 0 -3046 656 3329 5 MP stroke
4 w
DO
SO
6 w
0 sg
 656 3329 mt 4566 3329 L
 656 3329 mt  656  283 L
 943 3329 mt  943 3289 L
%%IncludeResource: font Helvetica
/Helvetica /WindowsLatin1Encoding 192 FMSR

 778 3541 mt 
(-2) s
1592 3329 mt 1592 3289 L
1539 3541 mt 
(0) s
2242 3329 mt 2242 3289 L
2189 3541 mt 
(2) s
2892 3329 mt 2892 3289 L
2839 3541 mt 
(4) s
3542 3329 mt 3542 3289 L
3489 3541 mt 
(6) s
4192 3329 mt 4192 3289 L
4139 3541 mt 
(8) s
 656 2793 mt  695 2793 L
 403 2864 mt 
(-2) s
 656 2184 mt  695 2184 L
 403 2255 mt 
(-1) s
 656 1575 mt  695 1575 L
 515 1646 mt 
(0) s
 656  965 mt  695  965 L
 515 1036 mt 
(1) s
 656  356 mt  695  356 L
 515  427 mt 
(2) s
gs 656 284 3911 3046 rc
18 w
gr

18 w
/c8 { 1.000000 0.000000 0.000000 sr} bdef
c8
  36   36  907 1775 FO
  36   36 1766 1150 FO
  36   36 1274 1390 FO
  36   36 1038 1755 FO
  36   36  728 1616 FO
  36   36  966 1615 FO
  36   36  809 1611 FO
  36   36 1073 2037 FO
  36   36 1030 2165 FO
  36   36 1432 1737 FO
  36   36 1512 1644 FO
  36   36  656 2048 FO
  36   36 1252 1348 FO
  36   36 1210 2173 FO
  36   36 1031 2176 FO
  36   36 1399 2740 FO
  36   36 1312 2254 FO
  36   36 1381 1964 FO
  36   36 2435 2159 FO
  36   36 1217 1361 FO
  36   36 1247 1440 FO
  36   36 2736 2621 FO
  36   36 1278 1399 FO
  36   36 3097 1846 FO
  36   36 2495 1056 FO
  36   36 1183 1397 FO
  36   36  903 1353 FO
  36   36 1170 1462 FO
  36   36 1434 1721 FO
  36   36 1056 1366 FO
  36   36 1960 1308 FO
  36   36  991 1597 FO
  36   36 1917 1153 FO
  36   36 1838  973 FO
  36   36  749 1800 FO
  36   36 2058 1628 FO
  36   36 1479 1350 FO
  36   36 2116 1742 FO
  36   36 1465 1429 FO
  36   36 1519 1339 FO
  36   36  974 1336 FO
  36   36 1595 1409 FO
  36   36 1504 1773 FO
  36   36 1069 1339 FO
  36   36 1342 1532 FO
  36   36 1374 1236 FO
  36   36 1876  773 FO
  36   36 1814 2406 FO
  36   36 1377 1630 FO
  36   36 1408 2288 FO
  36   36  994 1674 FO
  36   36 1498 1763 FO
  36   36 1364 1438 FO
  36   36 1294 2021 FO
  36   36 1503 1848 FO
  36   36 1155 1653 FO
  36   36 1153 1699 FO
  36   36 1281 2131 FO
  36   36 1232 2045 FO
  36   36  870 1743 FO
  36   36 1125 1919 FO
  36   36 1570 1878 FO
  36   36 2009 1147 FO
  36   36 1142 1271 FO
  36   36 1376 1434 FO
  36   36 1909 2386 FO
  36   36 1492 1984 FO
  36   36 1904 1773 FO
  36   36 1257 1456 FO
  36   36 1460 1992 FO
  36   36 1261 1904 FO
  36   36 1996 1499 FO
  36   36 1286 2109 FO
  36   36 2954 1200 FO
  36   36 1341 1119 FO
  36   36 1385 1494 FO
  36   36 1024 1956 FO
  36   36 1474 1667 FO
  36   36 1698 1191 FO
  36   36 1679 1308 FO
  36   36 1413  686 FO
  36   36 1307 1214 FO
  36   36 1217 1249 FO
  36   36 1197 1630 FO
  36   36 1388 1758 FO
  36   36 1610 2191 FO
  36   36 1395 1293 FO
  36   36 1461 1578 FO
  36   36 1223 2021 FO
  36   36 1732 1995 FO
  36   36  907 1775 FO
gs 656 284 3911 3046 rc
gr

/c9 { 0.000000 0.000000 1.000000 sr} bdef
c9
1185 1928 mt 1257 1928 L
1221 1892 mt 1221 1964 L
1482 1160 mt 1554 1160 L
1518 1124 mt 1518 1196 L
4530 2127 mt 4602 2127 L
4566 2091 mt 4566 2163 L
1661  732 mt 1733  732 L
1697  696 mt 1697  768 L
1225  375 mt 1297  375 L
1261  339 mt 1261  411 L
1527  665 mt 1599  665 L
1563  629 mt 1563  701 L
1454  847 mt 1526  847 L
1490  811 mt 1490  883 L
 759 1970 mt  831 1970 L
 795 1934 mt  795 2006 L
2733 1308 mt 2805 1308 L
2769 1272 mt 2769 1344 L
2602 1735 mt 2674 1735 L
2638 1699 mt 2638 1771 L
1126 1128 mt 1198 1128 L
1162 1092 mt 1162 1164 L
1477 2040 mt 1549 2040 L
1513 2004 mt 1513 2076 L
3518 3329 mt 3590 3329 L
3554 3293 mt 3554 3365 L
1193 1297 mt 1265 1297 L
1229 1261 mt 1229 1333 L
1320  872 mt 1392  872 L
1356  836 mt 1356  908 L
1591 1077 mt 1663 1077 L
1627 1041 mt 1627 1113 L
1213 2122 mt 1285 2122 L
1249 2086 mt 1249 2158 L
1220 1211 mt 1292 1211 L
1256 1175 mt 1256 1247 L
1122 1551 mt 1194 1551 L
1158 1515 mt 1158 1587 L
 762 1208 mt  834 1208 L
 798 1172 mt  798 1244 L
2355  369 mt 2427  369 L
2391  333 mt 2391  405 L
2483 1819 mt 2555 1819 L
2519 1783 mt 2519 1855 L
gs 656 284 3911 3046 rc
gr

3700 2828 mt 3772 2828 L
3736 2792 mt 3736 2864 L
1147 1386 mt 1219 1386 L
1183 1350 mt 1183 1422 L
2607 1062 mt 2679 1062 L
2643 1026 mt 2643 1098 L
3657  588 mt 3729  588 L
3693  552 mt 3693  624 L
3853 1623 mt 3925 1623 L
3889 1587 mt 3889 1659 L
1850 1298 mt 1922 1298 L
1886 1262 mt 1886 1334 L
2899  287 mt 2971  287 L
2935  251 mt 2935  323 L
1185 1928 mt 1257 1928 L
1221 1892 mt 1221 1964 L
gs 656 284 3911 3046 rc
gr

0 sg
2391 3737 mt 
(76 %) s
 305 2026 mt  -90 rotate
(12 %) s
90 rotate
6 w

end %%Color Dict

eplot
%%EndObject

epage
end

showpage

%%Trailer
%%EOF
