%!PS-Adobe-3.0 EPSF-3.0
%%Creator: MATLAB, The Mathworks, Inc. Version 7.10.0.499 (R2010a). Operating System: Microsoft Windows XP.
%%Title: F:\workmatlab\Signaux_imran\sub_3_cz_errp.eps
%%CreationDate: 05/03/2011  15:04:52
%%DocumentNeededFonts: Helvetica
%%DocumentProcessColors: Cyan Magenta Yellow Black
%%LanguageLevel: 2
%%Pages: 1
%%BoundingBox:   -21   253   618   588
%%EndComments

%%BeginProlog
% MathWorks dictionary
/MathWorks 160 dict begin
% definition operators
/bdef {bind def} bind def
/ldef {load def} bind def
/xdef {exch def} bdef
/xstore {exch store} bdef
% operator abbreviations
/c  /clip ldef
/cc /concat ldef
/cp /closepath ldef
/gr /grestore ldef
/gs /gsave ldef
/mt /moveto ldef
/np /newpath ldef
/cm /currentmatrix ldef
/sm /setmatrix ldef
/rm /rmoveto ldef
/rl /rlineto ldef
/s {show newpath} bdef
/sc {setcmykcolor} bdef
/sr /setrgbcolor ldef
/sg /setgray ldef
/w /setlinewidth ldef
/j /setlinejoin ldef
/cap /setlinecap ldef
/rc {rectclip} bdef
/rf {rectfill} bdef
% page state control
/pgsv () def
/bpage {/pgsv save def} bdef
/epage {pgsv restore} bdef
/bplot /gsave ldef
/eplot {stroke grestore} bdef
% orientation switch
/portraitMode 0 def /landscapeMode 1 def /rotateMode 2 def
% coordinate system mappings
/dpi2point 0 def
% font control
/FontSize 0 def
/FMS {/FontSize xstore findfont [FontSize 0 0 FontSize neg 0 0]
  makefont setfont} bdef
/ISOLatin1Encoding where {pop /WindowsLatin1Encoding 256 array bdef
ISOLatin1Encoding WindowsLatin1Encoding copy pop
/.notdef/.notdef/quotesinglbase/florin/quotedblbase/ellipsis/dagger
/daggerdbl/circumflex/perthousand/Scaron/guilsinglleft/OE/.notdef/.notdef
/.notdef/.notdef/quoteleft/quoteright/quotedblleft/quotedblright/bullet
/endash/emdash/tilde/trademark/scaron/guilsinglright/oe/.notdef/.notdef
/Ydieresis WindowsLatin1Encoding 128 32 getinterval astore pop}
{/WindowsLatin1Encoding StandardEncoding bdef} ifelse
/reencode {exch dup where {pop load} {pop StandardEncoding} ifelse
  exch dup 3 1 roll findfont dup length dict begin
  { 1 index /FID ne {def}{pop pop} ifelse } forall
  /Encoding exch def currentdict end definefont pop} bdef
/isroman {findfont /CharStrings get /Agrave known} bdef
/FMSR {3 1 roll 1 index dup isroman {reencode} {pop pop} ifelse
  exch FMS} bdef
/csm {1 dpi2point div -1 dpi2point div scale neg translate
 dup landscapeMode eq {pop -90 rotate}
  {rotateMode eq {90 rotate} if} ifelse} bdef
% line types: solid, dotted, dashed, dotdash
/SO { [] 0 setdash } bdef
/DO { [.5 dpi2point mul 4 dpi2point mul] 0 setdash } bdef
/DA { [6 dpi2point mul] 0 setdash } bdef
/DD { [.5 dpi2point mul 4 dpi2point mul 6 dpi2point mul 4
  dpi2point mul] 0 setdash } bdef
% macros for lines and objects
/L {lineto stroke} bdef
/MP {3 1 roll moveto 1 sub {rlineto} repeat} bdef
/AP {{rlineto} repeat} bdef
/PDlw -1 def
/W {/PDlw currentlinewidth def setlinewidth} def
/PP {closepath eofill} bdef
/DP {closepath stroke} bdef
/MR {4 -2 roll moveto dup  0 exch rlineto exch 0 rlineto
  neg 0 exch rlineto closepath} bdef
/FR {MR stroke} bdef
/PR {MR fill} bdef
/L1i {{currentfile picstr readhexstring pop} image} bdef
/tMatrix matrix def
/MakeOval {newpath tMatrix currentmatrix pop translate scale
0 0 1 0 360 arc tMatrix setmatrix} bdef
/FO {MakeOval stroke} bdef
/PO {MakeOval fill} bdef
/PD {currentlinewidth 2 div 0 360 arc fill
   PDlw -1 eq not {PDlw w /PDlw -1 def} if} def
/FA {newpath tMatrix currentmatrix pop translate scale
  0 0 1 5 -2 roll arc tMatrix setmatrix stroke} bdef
/PA {newpath tMatrix currentmatrix pop	translate 0 0 moveto scale
  0 0 1 5 -2 roll arc closepath tMatrix setmatrix fill} bdef
/FAn {newpath tMatrix currentmatrix pop translate scale
  0 0 1 5 -2 roll arcn tMatrix setmatrix stroke} bdef
/PAn {newpath tMatrix currentmatrix pop translate 0 0 moveto scale
  0 0 1 5 -2 roll arcn closepath tMatrix setmatrix fill} bdef
/vradius 0 def /hradius 0 def /lry 0 def
/lrx 0 def /uly 0 def /ulx 0 def /rad 0 def
/MRR {/vradius xdef /hradius xdef /lry xdef /lrx xdef /uly xdef
  /ulx xdef newpath tMatrix currentmatrix pop ulx hradius add uly
  vradius add translate hradius vradius scale 0 0 1 180 270 arc 
  tMatrix setmatrix lrx hradius sub uly vradius add translate
  hradius vradius scale 0 0 1 270 360 arc tMatrix setmatrix
  lrx hradius sub lry vradius sub translate hradius vradius scale
  0 0 1 0 90 arc tMatrix setmatrix ulx hradius add lry vradius sub
  translate hradius vradius scale 0 0 1 90 180 arc tMatrix setmatrix
  closepath} bdef
/FRR {MRR stroke } bdef
/PRR {MRR fill } bdef
/MlrRR {/lry xdef /lrx xdef /uly xdef /ulx xdef /rad lry uly sub 2 div def
  newpath tMatrix currentmatrix pop ulx rad add uly rad add translate
  rad rad scale 0 0 1 90 270 arc tMatrix setmatrix lrx rad sub lry rad
  sub translate rad rad scale 0 0 1 270 90 arc tMatrix setmatrix
  closepath} bdef
/FlrRR {MlrRR stroke } bdef
/PlrRR {MlrRR fill } bdef
/MtbRR {/lry xdef /lrx xdef /uly xdef /ulx xdef /rad lrx ulx sub 2 div def
  newpath tMatrix currentmatrix pop ulx rad add uly rad add translate
  rad rad scale 0 0 1 180 360 arc tMatrix setmatrix lrx rad sub lry rad
  sub translate rad rad scale 0 0 1 0 180 arc tMatrix setmatrix
  closepath} bdef
/FtbRR {MtbRR stroke } bdef
/PtbRR {MtbRR fill } bdef
/stri 6 array def /dtri 6 array def
/smat 6 array def /dmat 6 array def
/tmat1 6 array def /tmat2 6 array def /dif 3 array def
/asub {/ind2 exch def /ind1 exch def dup dup
  ind1 get exch ind2 get sub exch } bdef
/tri_to_matrix {
  2 0 asub 3 1 asub 4 0 asub 5 1 asub
  dup 0 get exch 1 get 7 -1 roll astore } bdef
/compute_transform {
  dmat dtri tri_to_matrix tmat1 invertmatrix 
  smat stri tri_to_matrix tmat2 concatmatrix } bdef
/ds {stri astore pop} bdef
/dt {dtri astore pop} bdef
/db {2 copy /cols xdef /rows xdef mul dup 3 mul string
  currentfile 
  3 index 0 eq {/ASCIIHexDecode filter}
  {/ASCII85Decode filter 3 index 2 eq {/RunLengthDecode filter} if }
  ifelse exch readstring pop
  dup 0 3 index getinterval /rbmap xdef
  dup 2 index dup getinterval /gbmap xdef
  1 index dup 2 mul exch getinterval /bbmap xdef pop pop}bdef
/it {gs np dtri aload pop moveto lineto lineto cp c
  cols rows 8 compute_transform 
  rbmap gbmap bbmap true 3 colorimage gr}bdef
/il {newpath moveto lineto stroke}bdef
currentdict end def
%%EndProlog

%%BeginSetup
MathWorks begin

0 cap

end
%%EndSetup

%%Page: 1 1
%%BeginPageSetup
%%PageBoundingBox:   -21   253   618   588
MathWorks begin
bpage
%%EndPageSetup

%%BeginObject: obj1
bplot

/dpi2point 12 def
portraitMode -0252 7056 csm

    0     0  7674  4016 rc
85 dict begin %Colortable dictionary
/c0 { 0.000000 0.000000 0.000000 sr} bdef
/c1 { 1.000000 1.000000 1.000000 sr} bdef
/c2 { 0.900000 0.000000 0.000000 sr} bdef
/c3 { 0.000000 0.820000 0.000000 sr} bdef
/c4 { 0.000000 0.000000 0.800000 sr} bdef
/c5 { 0.910000 0.820000 0.320000 sr} bdef
/c6 { 1.000000 0.260000 0.820000 sr} bdef
/c7 { 0.000000 0.820000 0.820000 sr} bdef
c0
1 j
1 sg
   0    0 7675 4017 rf
6 w
0 3273 5947 0 0 -3273 998 3574 4 MP
PP
-5947 0 0 3273 5947 0 0 -3273 998 3574 5 MP stroke
4 w
DO
SO
6 w
0 sg
 998 3574 mt 6945 3574 L
 998 3574 mt  998  301 L
 998 3574 mt  998 3514 L
%%IncludeResource: font Helvetica
/Helvetica /WindowsLatin1Encoding 168 FMSR

 858 3764 mt 
(150) s
1592 3574 mt 1592 3514 L
1452 3764 mt 
(200) s
2187 3574 mt 2187 3514 L
2047 3764 mt 
(250) s
2782 3574 mt 2782 3514 L
2642 3764 mt 
(300) s
3376 3574 mt 3376 3514 L
3236 3764 mt 
(350) s
3971 3574 mt 3971 3514 L
3831 3764 mt 
(400) s
4566 3574 mt 4566 3514 L
4426 3764 mt 
(450) s
5160 3574 mt 5160 3514 L
5020 3764 mt 
(500) s
5755 3574 mt 5755 3514 L
5615 3764 mt 
(550) s
6350 3574 mt 6350 3514 L
6210 3764 mt 
(600) s
6945 3574 mt 6945 3514 L
6805 3764 mt 
(650) s
 998 3574 mt 1057 3574 L
 632 3636 mt 
(-0.8) s
 998 3164 mt 1057 3164 L
 632 3226 mt 
(-0.6) s
 998 2755 mt 1057 2755 L
 632 2817 mt 
(-0.4) s
 998 2346 mt 1057 2346 L
 632 2408 mt 
(-0.2) s
 998 1937 mt 1057 1937 L
 870 1999 mt 
(0) s
 998 1528 mt 1057 1528 L
 730 1590 mt 
(0.2) s
 998 1119 mt 1057 1119 L
 730 1181 mt 
(0.4) s
 998  710 mt 1057  710 L
 730  772 mt 
(0.6) s
 998  301 mt 1057  301 L
 730  363 mt 
(0.8) s
gs 998 301 5948 3274 rc
24 w
/c8 { 0.000000 0.000000 1.000000 sr} bdef
c8
12 -5 12 -5 11 -6 12 -5 12 -6 11 -5 12 -6 11 -6 
12 -6 12 -7 11 -6 12 -7 11 -6 12 -7 12 -7 11 -6 
12 -7 12 -7 11 -8 12 -7 11 -7 12 -8 12 -7 11 -8 
12 -7 11 -8 12 -8 12 -8 11 -7 12 -8 12 -8 11 -8 
12 -8 11 -8 12 -8 12 -7 11 -8 12 -8 11 -8 12 -8 
12 -7 11 -8 12 -8 12 -7 11 -8 12 -7 11 -7 12 -8 
12 -7 11 -7 12 -7 11 -6 12 -7 12 -7 11 -6 12 -7 
12 -6 11 -6 12 -6 11 -6 12 -5 12 -6 11 -5 12 -5 
11 -5 12 -5 12 -5 11 -4 12 -5 12 -4 11 -4 12 -3 
11 -4 12 -3 12 -3 11 -2 12 -3 11 -2 12 -2 12 -2 
11 -1 12 -1 12 -1 11 -1 12 0 11 -1 12 0 12 1 
11 0 12 1 11 1 12 2 12 1 11 2 12 2 12 2 
11 2 12 3 11 2 12 3 12 3 11 3 12 4 11 3 
12 4 12 3 11 4 12 4 12 4 11 4 12 4 11 4 
12 4 12 4 11 4 12 4 11 5 12 4 12 4 11 4 
12 4 12 5 11 4 12 4 11 4 12 4 12 4 11 4 
12 4 11 5 12 4 12 4 11 4 12 3 12 4 11 4 
12 4 11 4 12 4 12 4 11 4 12 4 11 4 12 5 
12 4 11 4 12 4 12 5 11 4 12 5 11 4 12 5 
12 5 11 5 12 5 11 5 12 6 12 5 11 6 12 5 
12 6 11 6 12 6 11 6 12 6 12 7 11 6 12 6 
11 7 12 7 12 7 11 6 12 7 12 7 11 7 12 7 
11 7 12 7 12 7 11 7 12 7 11 7 12 7 12 7 
11 7 12 7 12 7 11 7 12 6 11 7 12 6 12 7 
11 6 12 6 11 6 12 6 12 6 11 6 12 6 12 5 
11 6 12 5 11 6 12 5 12 5 11 5 12 5 11 4 
12 5 12 5 11 4 12 4 12 5 11 4 12 4 11 4 
12 3 12 4 11 4 12 3 11 4 12 3 12 3 11 3 
12 3 12 3 11 3 12 3 11 3 12 3 12 2 11 3 
12 2 11 3 12 2 12 3 11 2 12 2 12 3 11 2 
12 2 11 2 12 2 12 3 11 2 12 2 11 2 12 3 
12 2 11 2 12 3 12 2 11 3 12 2 11 3 12 3 
12 2 11 4 12 3 11 3 12 3 12 4 11 4 12 4 
12 4 11 4 12 4 11 5 12 4 12 5 11 5 12 6 
11 5 12 6 12 5 11 6 12 6 12 6 11 6 12 7 
11 6 12 7 12 7 11 6 12 7 11 7 12 7 12 7 
11 8 12 7 12 7 11 7 12 8 11 7 12 8 12 7 
11 8 12 7 11 8 3472 1682 300 MP stroke
12 7 12 8 11 8 12 7 12 8 11 8 12 8 11 7 
12 8 12 8 11 8 12 8 11 7 12 8 12 8 11 8 
12 8 12 7 11 8 12 7 11 8 12 7 12 8 11 7 
12 8 11 7 12 7 12 7 11 7 12 6 12 7 11 6 
12 6 11 6 12 6 12 6 11 5 12 5 11 5 12 5 
12 4 11 4 12 4 12 4 11 3 12 3 11 2 12 2 
12 2 11 2 12 1 11 1 12 0 12 0 11 0 12 -1 
12 -1 11 -1 12 -2 11 -2 12 -3 12 -3 11 -3 12 -4 
11 -4 12 -5 12 -5 11 -5 12 -6 12 -6 11 -7 12 -7 
11 -7 12 -8 12 -8 11 -8 12 -9 11 -9 12 -9 12 -10 
11 -10 12 -10 12 -11 11 -10 12 -12 11 -11 12 -12 12 -11 
11 -13 12 -12 11 -12 12 -13 12 -13 11 -12 12 -13 12 -13 
11 -13 12 -13 11 -14 12 -13 12 -12 11 -13 12 -13 11 -13 
12 -12 12 -12 11 -13 12 -11 12 -12 11 -11 12 -12 11 -10 
12 -11 12 -10 11 -10 12 -9 11 -10 12 -8 12 -9 11 -8 
12 -8 12 -7 11 -7 12 -7 11 -6 12 -6 12 -5 11 -6 
12 -4 11 -5 12 -4 12 -4 11 -4 12 -4 12 -3 11 -3 
12 -2 11 -3 12 -2 12 -2 11 -2 12 -2 11 -1 12 -2 
12 -1 11 -1 12 0 12 -1 11 -1 12 0 11 0 12 -1 
12 0 11 0 12 0 11 0 12 1 12 0 11 0 12 1 
12 0 11 1 12 1 11 1 12 0 12 1 11 1 12 2 
11 1 12 1 12 1 11 2 12 1 12 2 11 1 12 2 
11 2 12 2 12 2 11 2 12 1 11 2 12 2 12 2 
11 2 12 2 12 2 11 2 12 2 11 2 12 2 12 2 
11 1 12 2 11 2 12 1 12 2 11 1 12 1 12 1 
11 1 12 1 11 1 12 1 12 1 11 1 12 0 11 1 
12 0 12 0 11 1 12 0 11 0 998 1994 214 MP stroke
DO
6 w
12 -6 12 -6 11 -7 12 -5 12 -6 11 -5 12 -5 11 -5 
12 -4 12 -4 11 -4 12 -4 11 -3 12 -3 12 -3 11 -3 
12 -3 12 -2 11 -2 12 -3 11 -2 12 -3 12 -2 11 -3 
12 -3 11 -2 12 -3 12 -4 11 -3 12 -4 12 -3 11 -5 
12 -4 11 -4 12 -5 12 -5 11 -5 12 -6 11 -6 12 -6 
12 -6 11 -6 12 -6 12 -7 11 -7 12 -7 11 -7 12 -7 
12 -7 11 -7 12 -7 11 -7 12 -7 12 -7 11 -7 12 -6 
12 -7 11 -6 12 -6 11 -6 12 -6 12 -6 11 -5 12 -5 
11 -4 12 -4 12 -4 11 -4 12 -3 12 -3 11 -2 12 -2 
11 -2 12 -2 12 -1 11 0 12 0 11 0 12 0 12 1 
11 1 12 1 12 2 11 2 12 2 11 2 12 2 12 3 
11 3 12 3 11 3 12 4 12 3 11 4 12 3 12 4 
11 4 12 4 11 4 12 3 12 4 11 4 12 4 11 4 
12 3 12 4 11 4 12 3 12 4 11 3 12 3 11 3 
12 3 12 3 11 3 12 2 11 3 12 2 12 2 11 2 
12 2 12 1 11 2 12 1 11 1 12 1 12 1 11 0 
12 1 11 0 12 0 12 0 11 0 12 0 12 -1 11 0 
12 -1 11 0 12 -1 12 -1 11 -1 12 -1 11 0 12 -1 
12 -1 11 0 12 0 12 -1 11 0 12 1 11 0 12 1 
12 1 11 1 12 2 11 2 12 2 12 3 11 3 12 4 
12 4 11 4 12 5 11 6 12 5 12 6 11 7 12 7 
11 7 12 8 12 8 11 8 12 9 12 9 11 9 12 9 
11 10 12 10 12 9 11 10 12 10 11 10 12 10 12 10 
11 9 12 10 12 9 11 10 12 9 11 9 12 9 12 8 
11 9 12 8 11 8 12 8 12 7 11 7 12 7 12 7 
11 6 12 6 11 6 12 5 12 5 11 5 12 5 11 4 
12 4 12 4 11 3 12 4 12 3 11 2 12 3 11 2 
12 2 12 2 11 1 12 2 11 1 12 0 12 1 11 1 
12 0 12 0 11 0 12 0 11 0 12 -1 12 0 11 -1 
12 0 11 -1 12 -1 12 -1 11 0 12 -1 12 -1 11 -1 
12 -1 11 0 12 -1 12 -1 11 0 12 -1 11 0 12 0 
12 0 11 1 12 0 12 1 11 1 12 1 11 2 12 2 
12 2 11 3 12 3 11 3 12 4 12 4 11 4 12 5 
12 5 11 6 12 5 11 7 12 6 12 7 11 7 12 7 
11 8 12 8 12 8 11 9 12 9 12 9 11 9 12 9 
11 10 12 10 12 10 11 10 12 10 11 10 12 11 12 11 
11 10 12 11 12 11 11 11 12 11 11 11 12 12 12 11 
11 11 12 12 11 11 3472 979 300 MP stroke
12 12 12 11 11 12 12 11 12 12 11 12 12 11 11 12 
12 11 12 12 11 11 12 11 11 12 12 11 12 10 11 11 
12 11 12 10 11 10 12 10 11 9 12 10 12 9 11 8 
12 9 11 8 12 7 12 7 11 7 12 7 12 6 11 6 
12 5 11 5 12 5 12 4 11 3 12 4 11 2 12 3 
12 2 11 2 12 1 12 1 11 1 12 0 11 0 12 0 
12 -1 11 -1 12 -1 11 -2 12 -2 12 -2 11 -2 12 -2 
12 -3 11 -3 12 -3 11 -3 12 -4 12 -3 11 -4 12 -4 
11 -5 12 -4 12 -5 11 -5 12 -6 12 -5 11 -6 12 -6 
11 -7 12 -6 12 -8 11 -7 12 -8 11 -8 12 -8 12 -9 
11 -10 12 -9 12 -11 11 -10 12 -11 11 -12 12 -12 12 -12 
11 -13 12 -13 11 -13 12 -14 12 -15 11 -14 12 -15 12 -15 
11 -16 12 -15 11 -16 12 -16 12 -16 11 -17 12 -16 11 -16 
12 -16 12 -16 11 -16 12 -16 12 -15 11 -16 12 -15 11 -14 
12 -14 12 -14 11 -13 12 -13 11 -12 12 -11 12 -11 11 -10 
12 -10 12 -8 11 -9 12 -7 11 -7 12 -6 12 -6 11 -5 
12 -4 11 -4 12 -3 12 -3 11 -2 12 -2 12 -1 11 -1 
12 0 11 0 12 0 12 1 11 1 12 1 11 1 12 1 
12 2 11 2 12 2 12 2 11 2 12 2 11 2 12 2 
12 1 11 2 12 2 11 2 12 1 12 2 11 1 12 1 
12 1 11 1 12 1 11 0 12 1 12 1 11 0 12 1 
11 0 12 1 12 0 11 1 12 1 12 0 11 2 12 1 
11 1 12 2 12 2 11 2 12 3 11 3 12 3 12 4 
11 4 12 4 12 5 11 5 12 6 11 5 12 7 12 6 
11 7 12 7 11 7 12 7 12 8 11 8 12 7 12 8 
11 8 12 8 11 7 12 8 12 7 11 8 12 7 11 6 
12 7 12 6 11 6 12 5 11 5 998 1141 214 MP stroke
12 -4 12 -4 11 -5 12 -5 12 -5 11 -7 12 -6 11 -8 
12 -8 12 -8 11 -9 12 -9 11 -10 12 -10 12 -11 11 -11 
12 -11 12 -12 11 -12 12 -12 11 -12 12 -13 12 -12 11 -13 
12 -12 11 -13 12 -12 12 -12 11 -13 12 -12 12 -12 11 -11 
12 -12 11 -11 12 -11 12 -11 11 -10 12 -10 11 -10 12 -10 
12 -9 11 -9 12 -9 12 -8 11 -9 12 -7 11 -8 12 -8 
12 -7 11 -7 12 -6 11 -7 12 -6 12 -7 11 -6 12 -6 
12 -6 11 -6 12 -5 11 -6 12 -6 12 -5 11 -6 12 -5 
11 -6 12 -5 12 -5 11 -6 12 -5 12 -5 11 -6 12 -5 
11 -5 12 -5 12 -5 11 -5 12 -4 11 -5 12 -4 12 -4 
11 -4 12 -4 12 -3 11 -4 12 -3 11 -2 12 -3 12 -2 
11 -1 12 -2 11 -1 12 -1 12 0 11 0 12 0 12 1 
11 0 12 2 11 1 12 2 12 2 11 3 12 2 11 3 
12 4 12 3 11 4 12 4 12 5 11 4 12 5 11 5 
12 6 12 5 11 6 12 5 11 7 12 6 12 6 11 7 
12 6 12 7 11 7 12 7 11 7 12 7 12 8 11 7 
12 8 11 8 12 8 12 8 11 8 12 8 12 8 11 9 
12 8 11 9 12 9 12 8 11 9 12 9 11 9 12 9 
12 9 11 9 12 9 12 9 11 9 12 9 11 9 12 9 
12 8 11 9 12 8 11 9 12 8 12 8 11 8 12 8 
12 7 11 7 12 7 11 7 12 7 12 7 11 6 12 6 
11 6 12 5 12 6 11 5 12 5 12 5 11 5 12 5 
11 4 12 5 12 4 11 4 12 5 11 4 12 4 12 4 
11 4 12 4 12 4 11 4 12 4 11 4 12 5 12 4 
11 4 12 4 11 5 12 4 12 5 11 4 12 5 12 4 
11 5 12 5 11 5 12 5 12 5 11 5 12 5 11 5 
12 5 12 5 11 6 12 5 12 5 11 6 12 5 11 6 
12 6 12 5 11 6 12 6 11 5 12 6 12 6 11 6 
12 6 12 6 11 5 12 6 11 6 12 6 12 6 11 5 
12 6 11 6 12 5 12 6 11 5 12 6 12 5 11 6 
12 5 11 5 12 5 12 5 11 5 12 5 11 4 12 5 
12 4 11 5 12 4 12 4 11 4 12 4 11 4 12 3 
12 4 11 3 12 3 11 4 12 3 12 3 11 3 12 3 
12 3 11 3 12 3 11 3 12 3 12 3 11 3 12 3 
11 3 12 3 12 3 11 3 12 3 12 4 11 3 12 3 
11 4 12 3 12 4 11 3 12 4 11 3 12 4 12 3 
11 4 12 3 12 4 11 4 12 3 11 4 12 3 12 4 
11 4 12 3 11 4 3472 2386 300 MP stroke
12 4 12 4 11 3 12 4 12 4 11 4 12 4 11 4 
12 4 12 4 11 5 12 4 11 4 12 5 12 5 11 5 
12 4 12 6 11 5 12 5 11 6 12 5 12 6 11 6 
12 6 11 7 12 6 12 7 11 7 12 6 12 7 11 7 
12 8 11 7 12 7 12 7 11 7 12 7 11 7 12 7 
12 6 11 7 12 6 12 6 11 6 12 6 11 5 12 4 
12 5 11 4 12 3 11 3 12 3 12 2 11 2 12 1 
12 1 11 -1 12 0 11 -1 12 -2 12 -2 11 -3 12 -4 
11 -4 12 -5 12 -5 11 -5 12 -7 12 -6 11 -8 12 -7 
11 -9 12 -8 12 -9 11 -9 12 -10 11 -10 12 -10 12 -10 
11 -11 12 -10 12 -11 11 -12 12 -11 11 -11 12 -12 12 -11 
11 -11 12 -12 11 -11 12 -11 12 -12 11 -11 12 -11 12 -11 
11 -10 12 -11 11 -10 12 -10 12 -10 11 -9 12 -9 11 -9 
12 -9 12 -9 11 -8 12 -8 12 -8 11 -7 12 -8 11 -7 
12 -7 12 -6 11 -7 12 -6 11 -7 12 -6 12 -6 11 -6 
12 -6 12 -6 11 -5 12 -6 11 -6 12 -5 12 -6 11 -5 
12 -6 11 -5 12 -6 12 -5 11 -5 12 -6 12 -5 11 -5 
12 -5 11 -5 12 -5 12 -4 11 -5 12 -4 11 -5 12 -4 
12 -4 11 -3 12 -4 12 -3 11 -3 12 -3 11 -3 12 -2 
12 -2 11 -2 12 -1 11 -2 12 -1 12 -1 11 0 12 0 
12 0 11 0 12 1 11 1 12 1 12 1 11 2 12 1 
11 2 12 2 12 2 11 3 12 2 12 2 11 2 12 3 
11 2 12 2 12 1 11 2 12 1 11 1 12 1 12 0 
11 0 12 0 12 -1 11 -2 12 -1 11 -2 12 -3 12 -3 
11 -3 12 -4 11 -4 12 -4 12 -5 11 -5 12 -5 12 -5 
11 -6 12 -6 11 -6 12 -6 12 -5 11 -6 12 -6 11 -6 
12 -6 12 -5 11 -5 12 -5 11 -5 998 2847 214 MP stroke
gr

c8
DO
0 sg
%%IncludeResource: font Helvetica
/Helvetica /WindowsLatin1Encoding 192 FMSR

3423 3960 mt 
(temps en ms) s
SO

end %%Color Dict

eplot
%%EndObject

epage
end

showpage

%%Trailer
%%EOF
