%!PS-Adobe-2.0 EPSF-1.2
%%Creator: MATLAB, The Mathworks, Inc. Version 7.9.0.529 (R2009b). Operating System: Microsoft Windows Vista.
%%Title: .\sub_4_faux_Cpz.eps
%%CreationDate: 12/21/2011  20:23:33
%%DocumentNeededFonts: Helvetica
%%DocumentProcessColors: Cyan Magenta Yellow Black
%%Extensions: CMYK
%%Pages: 1
%%BoundingBox:   -77   262   673   578
%%EndComments

%%BeginProlog
% MathWorks dictionary
/MathWorks 160 dict begin
% definition operators
/bdef {bind def} bind def
/ldef {load def} bind def
/xdef {exch def} bdef
/xstore {exch store} bdef
% operator abbreviations
/c  /clip ldef
/cc /concat ldef
/cp /closepath ldef
/gr /grestore ldef
/gs /gsave ldef
/mt /moveto ldef
/np /newpath ldef
/cm /currentmatrix ldef
/sm /setmatrix ldef
/rm /rmoveto ldef
/rl /rlineto ldef
/s {show newpath} bdef
/sc {setcmykcolor} bdef
/sr /setrgbcolor ldef
/sg /setgray ldef
/w /setlinewidth ldef
/j /setlinejoin ldef
/cap /setlinecap ldef
/rc {rectclip} bdef
/rf {rectfill} bdef
% page state control
/pgsv () def
/bpage {/pgsv save def} bdef
/epage {pgsv restore} bdef
/bplot /gsave ldef
/eplot {stroke grestore} bdef
% orientation switch
/portraitMode 0 def /landscapeMode 1 def /rotateMode 2 def
% coordinate system mappings
/dpi2point 0 def
% font control
/FontSize 0 def
/FMS {/FontSize xstore findfont [FontSize 0 0 FontSize neg 0 0]
  makefont setfont} bdef
/ISOLatin1Encoding where {pop /WindowsLatin1Encoding 256 array bdef
ISOLatin1Encoding WindowsLatin1Encoding copy pop
/.notdef/.notdef/quotesinglbase/florin/quotedblbase/ellipsis/dagger
/daggerdbl/circumflex/perthousand/Scaron/guilsinglleft/OE/.notdef/.notdef
/.notdef/.notdef/quoteleft/quoteright/quotedblleft/quotedblright/bullet
/endash/emdash/tilde/trademark/scaron/guilsinglright/oe/.notdef/.notdef
/Ydieresis WindowsLatin1Encoding 128 32 getinterval astore pop}
{/WindowsLatin1Encoding StandardEncoding bdef} ifelse
/reencode {exch dup where {pop load} {pop StandardEncoding} ifelse
  exch dup 3 1 roll findfont dup length dict begin
  { 1 index /FID ne {def}{pop pop} ifelse } forall
  /Encoding exch def currentdict end definefont pop} bdef
/isroman {findfont /CharStrings get /Agrave known} bdef
/FMSR {3 1 roll 1 index dup isroman {reencode} {pop pop} ifelse
  exch FMS} bdef
/csm {1 dpi2point div -1 dpi2point div scale neg translate
 dup landscapeMode eq {pop -90 rotate}
  {rotateMode eq {90 rotate} if} ifelse} bdef
% line types: solid, dotted, dashed, dotdash
/SO { [] 0 setdash } bdef
/DO { [.5 dpi2point mul 4 dpi2point mul] 0 setdash } bdef
/DA { [6 dpi2point mul] 0 setdash } bdef
/DD { [.5 dpi2point mul 4 dpi2point mul 6 dpi2point mul 4
  dpi2point mul] 0 setdash } bdef
% macros for lines and objects
/L {lineto stroke} bdef
/MP {3 1 roll moveto 1 sub {rlineto} repeat} bdef
/AP {{rlineto} repeat} bdef
/PDlw -1 def
/W {/PDlw currentlinewidth def setlinewidth} def
/PP {closepath eofill} bdef
/DP {closepath stroke} bdef
/MR {4 -2 roll moveto dup  0 exch rlineto exch 0 rlineto
  neg 0 exch rlineto closepath} bdef
/FR {MR stroke} bdef
/PR {MR fill} bdef
/L1i {{currentfile picstr readhexstring pop} image} bdef
/tMatrix matrix def
/MakeOval {newpath tMatrix currentmatrix pop translate scale
0 0 1 0 360 arc tMatrix setmatrix} bdef
/FO {MakeOval stroke} bdef
/PO {MakeOval fill} bdef
/PD {currentlinewidth 2 div 0 360 arc fill
   PDlw -1 eq not {PDlw w /PDlw -1 def} if} def
/FA {newpath tMatrix currentmatrix pop translate scale
  0 0 1 5 -2 roll arc tMatrix setmatrix stroke} bdef
/PA {newpath tMatrix currentmatrix pop	translate 0 0 moveto scale
  0 0 1 5 -2 roll arc closepath tMatrix setmatrix fill} bdef
/FAn {newpath tMatrix currentmatrix pop translate scale
  0 0 1 5 -2 roll arcn tMatrix setmatrix stroke} bdef
/PAn {newpath tMatrix currentmatrix pop translate 0 0 moveto scale
  0 0 1 5 -2 roll arcn closepath tMatrix setmatrix fill} bdef
/vradius 0 def /hradius 0 def /lry 0 def
/lrx 0 def /uly 0 def /ulx 0 def /rad 0 def
/MRR {/vradius xdef /hradius xdef /lry xdef /lrx xdef /uly xdef
  /ulx xdef newpath tMatrix currentmatrix pop ulx hradius add uly
  vradius add translate hradius vradius scale 0 0 1 180 270 arc 
  tMatrix setmatrix lrx hradius sub uly vradius add translate
  hradius vradius scale 0 0 1 270 360 arc tMatrix setmatrix
  lrx hradius sub lry vradius sub translate hradius vradius scale
  0 0 1 0 90 arc tMatrix setmatrix ulx hradius add lry vradius sub
  translate hradius vradius scale 0 0 1 90 180 arc tMatrix setmatrix
  closepath} bdef
/FRR {MRR stroke } bdef
/PRR {MRR fill } bdef
/MlrRR {/lry xdef /lrx xdef /uly xdef /ulx xdef /rad lry uly sub 2 div def
  newpath tMatrix currentmatrix pop ulx rad add uly rad add translate
  rad rad scale 0 0 1 90 270 arc tMatrix setmatrix lrx rad sub lry rad
  sub translate rad rad scale 0 0 1 270 90 arc tMatrix setmatrix
  closepath} bdef
/FlrRR {MlrRR stroke } bdef
/PlrRR {MlrRR fill } bdef
/MtbRR {/lry xdef /lrx xdef /uly xdef /ulx xdef /rad lrx ulx sub 2 div def
  newpath tMatrix currentmatrix pop ulx rad add uly rad add translate
  rad rad scale 0 0 1 180 360 arc tMatrix setmatrix lrx rad sub lry rad
  sub translate rad rad scale 0 0 1 0 180 arc tMatrix setmatrix
  closepath} bdef
/FtbRR {MtbRR stroke } bdef
/PtbRR {MtbRR fill } bdef
/stri 6 array def /dtri 6 array def
/smat 6 array def /dmat 6 array def
/tmat1 6 array def /tmat2 6 array def /dif 3 array def
/asub {/ind2 exch def /ind1 exch def dup dup
  ind1 get exch ind2 get sub exch } bdef
/tri_to_matrix {
  2 0 asub 3 1 asub 4 0 asub 5 1 asub
  dup 0 get exch 1 get 7 -1 roll astore } bdef
/compute_transform {
  dmat dtri tri_to_matrix tmat1 invertmatrix 
  smat stri tri_to_matrix tmat2 concatmatrix } bdef
/ds {stri astore pop} bdef
/dt {dtri astore pop} bdef
/db {2 copy /cols xdef /rows xdef mul dup 3 mul string
  currentfile exch readhexstring pop
  dup 0 3 index getinterval /rbmap xdef
  dup 2 index dup getinterval /gbmap xdef
  1 index dup 2 mul exch getinterval /bbmap xdef pop pop}bdef
/it {gs np dtri aload pop moveto lineto lineto cp c
  cols rows 8 compute_transform 
  rbmap gbmap bbmap true 3 colorimage gr}bdef
/il {newpath moveto lineto stroke}bdef
currentdict end def
%%EndProlog

%%BeginSetup
MathWorks begin

0 cap

end
%%EndSetup

%%Page: 1 1
%%BeginPageSetup
%%PageBoundingBox:   -77   262   673   578
MathWorks begin
bpage
%%EndPageSetup

%%BeginObject: obj1
bplot

/dpi2point 12 def
portraitMode -0924 6936 csm

    0     0  9007  3782 MR c np
85 dict begin %Colortable dictionary
/c0 { 0.000000 0.000000 0.000000 sr} bdef
/c1 { 1.000000 1.000000 1.000000 sr} bdef
/c2 { 0.900000 0.000000 0.000000 sr} bdef
/c3 { 0.000000 0.820000 0.000000 sr} bdef
/c4 { 0.000000 0.000000 0.800000 sr} bdef
/c5 { 0.910000 0.820000 0.320000 sr} bdef
/c6 { 1.000000 0.260000 0.820000 sr} bdef
/c7 { 0.000000 0.820000 0.820000 sr} bdef
c0
1 j
1 sg
   0    0 9008 3783 PR
6 w
0 3067 6980 0 0 -3067 1171 3351 4 MP
PP
-6980 0 0 3067 6980 0 0 -3067 1171 3351 5 MP stroke
4 w
DO
SO
6 w
0 sg
1171 3351 mt 8151 3351 L
1171 3351 mt 1171  284 L
1171 3351 mt 1171 3281 L
%%IncludeResource: font Helvetica
/Helvetica /WindowsLatin1Encoding 168 FMSR

1031 3541 mt 
(150) s
1869 3351 mt 1869 3281 L
1729 3541 mt 
(200) s
2567 3351 mt 2567 3281 L
2427 3541 mt 
(250) s
3265 3351 mt 3265 3281 L
3125 3541 mt 
(300) s
3963 3351 mt 3963 3281 L
3823 3541 mt 
(350) s
4661 3351 mt 4661 3281 L
4521 3541 mt 
(400) s
5359 3351 mt 5359 3281 L
5219 3541 mt 
(450) s
6057 3351 mt 6057 3281 L
5917 3541 mt 
(500) s
6755 3351 mt 6755 3281 L
6615 3541 mt 
(550) s
7453 3351 mt 7453 3281 L
7313 3541 mt 
(600) s
8151 3351 mt 8151 3281 L
8011 3541 mt 
(650) s
1171 3351 mt 1240 3351 L
 805 3413 mt 
(-0.8) s
1171 2967 mt 1240 2967 L
 805 3029 mt 
(-0.6) s
1171 2584 mt 1240 2584 L
 805 2646 mt 
(-0.4) s
1171 2200 mt 1240 2200 L
 805 2262 mt 
(-0.2) s
1171 1817 mt 1240 1817 L
1043 1879 mt 
(0) s
1171 1434 mt 1240 1434 L
 903 1496 mt 
(0.2) s
1171 1050 mt 1240 1050 L
 903 1112 mt 
(0.4) s
1171  667 mt 1240  667 L
 903  729 mt 
(0.6) s
1171  284 mt 1240  284 L
 903  346 mt 
(0.8) s
gs 1171 284 6981 3068 MR c np
24 w
/c8 { 0.000000 0.000000 1.000000 sr} bdef
c8
14 -5 14 -5 13 -5 14 -6 14 -6 13 -6 14 -6 14 -7 
13 -7 14 -7 13 -7 14 -7 14 -8 13 -7 14 -8 14 -8 
13 -8 14 -8 14 -8 13 -9 14 -8 13 -9 14 -8 14 -9 
13 -8 14 -9 14 -8 13 -9 14 -8 13 -9 14 -8 14 -9 
13 -8 14 -9 14 -8 13 -9 14 -8 14 -8 13 -8 14 -9 
13 -8 14 -8 14 -8 13 -8 14 -8 14 -7 13 -8 14 -8 
14 -7 13 -7 14 -7 13 -7 14 -7 14 -7 13 -6 14 -7 
14 -6 13 -6 14 -5 13 -5 14 -5 14 -5 13 -4 14 -5 
14 -3 13 -4 14 -3 14 -2 13 -3 14 -2 13 -1 14 -2 
14 0 13 -1 14 0 14 0 13 1 14 1 13 1 14 2 
14 2 13 2 14 3 14 2 13 4 14 3 14 4 13 3 
14 4 13 4 14 5 14 4 13 5 14 4 14 5 13 5 
14 4 14 5 13 5 6801 2503 100 MP stroke
14 4 13 5 14 4 14 4 13 4 14 4 14 4 13 4 
14 3 13 3 14 3 14 3 13 2 14 2 14 2 13 1 
14 1 14 1 13 1 14 0 13 -1 14 0 14 -1 13 -2 
14 -1 14 -2 13 -3 14 -3 13 -3 14 -3 14 -4 13 -4 
14 -5 14 -4 13 -5 14 -6 14 -5 13 -6 14 -6 13 -6 
14 -7 14 -6 13 -7 14 -7 14 -7 13 -7 14 -7 14 -7 
13 -6 14 -7 13 -7 14 -6 14 -6 13 -7 14 -5 14 -6 
13 -5 14 -4 13 -4 14 -4 14 -3 13 -3 14 -2 14 -1 
13 -1 14 0 14 1 13 2 14 2 13 3 14 4 14 5 
13 6 14 6 14 8 13 8 14 9 14 10 13 11 14 12 
13 12 14 14 14 14 13 15 14 16 14 17 13 17 14 18 
13 19 14 19 14 20 13 21 14 21 14 22 13 22 14 22 
14 23 13 24 14 23 5451 2204 100 MP stroke
13 24 14 24 14 24 13 24 14 25 14 24 13 25 14 24 
13 24 14 24 14 24 13 24 14 23 14 24 13 22 14 23 
14 22 13 21 14 21 13 21 14 20 14 19 13 19 14 18 
14 18 13 17 14 16 14 16 13 14 14 14 13 14 14 12 
14 12 13 11 14 10 14 10 13 8 14 8 13 7 14 6 
14 6 13 4 14 4 14 3 13 3 14 1 14 1 13 0 
14 0 13 -2 14 -1 14 -3 13 -3 14 -4 14 -5 13 -5 
14 -5 13 -6 14 -7 14 -7 13 -8 14 -8 14 -8 13 -9 
14 -9 14 -10 13 -9 14 -10 13 -10 14 -11 14 -10 13 -11 
14 -11 14 -11 13 -11 14 -11 14 -11 13 -10 14 -11 13 -10 
14 -11 14 -10 13 -10 14 -9 14 -9 13 -9 14 -8 13 -8 
14 -7 14 -7 13 -6 14 -5 14 -5 13 -4 14 -3 14 -3 
13 -2 14 -1 13 0 4102 1810 100 MP stroke
14 1 14 2 13 2 14 4 14 4 13 6 14 6 14 7 
13 8 14 9 13 10 14 11 14 12 13 13 14 14 14 14 
13 15 14 16 13 17 14 18 14 18 13 19 14 19 14 20 
13 20 14 21 14 22 13 21 14 22 13 23 14 22 14 23 
13 22 14 23 14 23 13 22 14 22 13 23 14 22 14 21 
13 21 14 21 14 20 13 20 14 19 14 18 13 18 14 17 
13 16 14 15 14 14 13 13 14 13 14 11 13 10 14 9 
14 8 13 7 14 5 13 4 14 3 14 2 13 1 14 -1 
14 -2 13 -3 14 -5 13 -6 14 -7 14 -8 13 -10 14 -11 
14 -12 13 -13 14 -15 14 -15 13 -17 14 -18 13 -19 14 -20 
14 -21 13 -22 14 -23 14 -23 13 -25 14 -25 13 -26 14 -27 
14 -27 13 -28 14 -29 14 -29 13 -29 14 -30 14 -30 13 -30 
14 -30 13 -31 14 -30 2752 1605 100 MP stroke
14 -31 13 -31 14 -30 14 -31 13 -30 14 -30 14 -30 13 -30 
14 -29 13 -28 14 -28 14 -28 13 -27 14 -26 14 -26 13 -25 
14 -24 13 -23 14 -23 14 -21 13 -21 14 -20 14 -18 13 -18 
14 -17 14 -15 13 -15 14 -13 13 -12 14 -11 14 -9 13 -9 
14 -7 14 -6 13 -4 14 -4 14 -2 13 -1 14 1 13 2 
14 3 14 4 13 6 14 7 14 8 13 10 14 11 13 12 
14 13 14 14 13 16 14 16 14 18 13 18 14 20 14 21 
13 21 14 22 13 24 14 24 14 24 13 25 14 26 14 27 
13 26 14 28 13 27 14 28 14 28 13 28 14 29 14 28 
13 29 14 28 14 28 13 28 14 28 13 27 14 27 14 27 
13 26 14 25 14 25 13 25 14 23 14 23 13 22 14 22 
13 20 14 20 14 18 13 18 14 16 14 16 13 15 14 13 
13 12 14 12 14 10 1402 1160 100 MP stroke
13 8 14 8 14 7 13 5 14 4 14 3 13 1 14 1 
13 -1 14 -2 14 -4 13 -5 14 -6 14 -7 13 -8 14 -10 
13 -11 1171 1177 18 MP stroke
6 w
11 -27 14 -35 13 -35 14 -36 14 -36 13 -36 14 -36 14 -35 
13 -36 14 -35 13 -34 14 -34 14 -33 13 -32 14 -32 14 -30 
13 -29 14 -28 13 -26 14 -25 14 -24 13 -23 14 -20 14 -20 
13 -17 14 -16 14 -15 13 -13 14 -11 13 -10 14 -9 14 -7 
13 -5 14 -4 14 -3 13 -1 14 0 14 1 13 3 14 4 
13 4 14 6 14 7 13 8 14 9 14 10 13 10 14 12 
13 12 14 14 14 14 13 14 14 16 14 16 13 17 14 17 
14 19 13 19 14 19 13 20 14 21 14 22 13 22 14 22 
14 24 13 23 14 25 13 25 14 25 14 26 13 26 14 27 
14 27 13 28 14 27 14 28 13 29 14 28 13 28 14 29 
14 28 13 28 5 9 1643 284 84 MP stroke
14 -8 14 -10 13 -12 14 -13 14 -14 13 -16 14 -17 14 -18 
13 -19 14 -20 13 -21 14 -21 14 -23 13 -23 14 -23 14 -23 
13 -23 14 -23 14 -23 13 -23 14 -22 13 -21 14 -20 14 -19 
13 -18 14 -17 14 -15 13 -14 14 -13 13 -10 14 -9 14 -8 
13 -6 14 -5 14 -3 13 -2 14 0 14 0 13 2 14 2 
13 3 14 3 14 4 13 4 14 5 14 4 13 4 14 5 
14 3 13 4 14 3 13 2 14 2 14 1 13 0 14 0 
14 -1 13 -2 14 -2 13 -3 14 -4 14 -5 13 -5 14 -5 
14 -6 13 -7 14 -7 14 -7 13 -8 14 -7 13 -8 14 -7 
14 -8 13 -7 14 -7 14 -6 13 -6 14 -6 13 -4 14 -5 
14 -3 13 -2 14 -2 14 0 13 0 14 1 14 2 13 3 
14 4 13 5 14 6 14 7 13 7 14 8 14 8 13 9 
14 10 14 9 13 10 6801 1376 100 MP stroke
14 10 13 11 14 10 14 10 13 10 14 9 14 10 13 8 
14 8 13 8 14 7 14 6 13 6 14 4 14 4 13 3 
14 2 14 1 13 0 14 -1 13 -2 14 -3 14 -4 13 -5 
14 -6 14 -7 13 -8 14 -9 13 -9 14 -11 14 -11 13 -12 
14 -12 14 -13 13 -14 14 -14 14 -14 13 -15 14 -15 13 -15 
14 -15 14 -15 13 -15 14 -14 14 -15 13 -14 14 -14 14 -13 
13 -13 14 -12 13 -11 14 -10 14 -10 13 -9 14 -7 14 -7 
13 -5 14 -4 13 -3 14 -2 14 -1 13 1 14 2 14 3 
13 5 14 6 14 8 13 8 14 10 13 11 14 13 14 13 
13 15 14 16 14 17 13 18 14 19 14 20 13 20 14 22 
13 22 14 22 14 24 13 23 14 24 14 25 13 24 14 25 
13 25 14 26 14 25 13 25 14 25 14 24 13 25 14 24 
14 24 13 23 14 23 5451 973 100 MP stroke
13 23 14 22 14 21 13 21 14 20 14 20 13 19 14 18 
13 18 14 17 14 16 13 16 14 15 14 14 13 14 14 13 
14 12 13 13 14 11 13 11 14 11 14 10 13 10 14 10 
14 9 13 10 14 9 14 9 13 9 14 9 13 8 14 9 
14 9 13 8 14 9 14 9 13 8 14 9 13 9 14 8 
14 8 13 9 14 8 14 7 13 8 14 7 14 7 13 7 
14 6 13 6 14 5 14 4 13 4 14 3 14 3 13 2 
14 1 13 1 14 0 14 -1 13 -2 14 -2 14 -4 13 -4 
14 -4 14 -6 13 -6 14 -6 13 -8 14 -8 14 -8 13 -9 
14 -10 14 -9 13 -11 14 -10 14 -11 13 -11 14 -12 13 -11 
14 -11 14 -11 13 -11 14 -11 14 -11 13 -10 14 -10 13 -9 
14 -8 14 -8 13 -7 14 -7 14 -5 13 -4 14 -4 14 -2 
13 -1 14 0 13 1 4102 643 100 MP stroke
14 3 14 3 13 5 14 7 14 7 13 9 14 10 14 11 
13 12 14 13 13 14 14 16 14 16 13 17 14 18 14 18 
13 19 14 20 13 20 14 21 14 21 13 21 14 22 14 21 
9 15 3765 284 26 MP stroke
2 4 13 26 14 27 14 28 13 28 14 29 14 29 13 30 
14 30 13 31 14 30 14 30 13 31 14 30 14 29 13 30 
14 29 14 28 13 28 14 27 13 26 14 26 14 25 13 24 
14 23 14 23 13 21 14 21 14 19 13 19 14 18 13 17 
14 16 14 16 13 14 14 13 14 13 13 11 14 11 13 10 
14 9 14 8 13 8 14 6 14 6 13 5 14 4 14 3 
13 2 14 1 13 1 14 -1 14 -1 13 -3 14 -3 14 -4 
13 -6 14 -6 13 -7 1171 2410 60 MP stroke
11 23 14 28 14 30 13 29 14 31 13 31 14 31 14 31 
13 32 14 32 14 32 13 32 14 32 14 31 13 31 14 31 
13 30 14 29 14 28 13 28 14 27 14 25 13 25 14 23 
14 22 13 21 14 19 13 18 14 16 14 15 13 13 14 12 
14 10 13 9 14 7 13 5 14 4 14 3 13 1 14 0 
14 -2 13 -3 14 -4 14 -5 13 -6 14 -7 13 -9 14 -9 
14 -9 13 -11 14 -11 14 -11 13 -12 14 -13 13 -13 14 -13 
14 -13 13 -14 14 -13 14 -14 13 -13 14 -14 14 -14 13 -13 
14 -13 13 -13 14 -13 14 -13 13 -12 14 -12 14 -12 13 -12 
14 -11 14 -11 13 -10 14 -10 13 -10 14 -9 14 -9 13 -9 
14 -8 14 -8 13 -7 14 -7 13 -6 14 -6 14 -5 13 -6 
14 -4 14 -4 13 -4 14 -3 14 -3 13 -3 14 -1 13 -2 
14 -1 14 0 13 0 4061 2978 100 MP stroke
14 1 14 1 13 3 14 2 14 4 13 4 14 5 13 6 
14 6 14 8 13 8 14 10 14 10 13 11 14 13 13 13 
14 14 14 16 13 16 14 17 14 19 13 19 14 20 14 21 
13 22 14 23 13 23 14 24 14 25 13 25 14 26 14 26 
13 26 14 27 13 26 14 27 14 26 13 26 14 26 14 25 
13 25 14 24 14 23 13 23 14 21 13 20 14 20 14 17 
13 17 14 15 14 13 13 12 14 10 14 8 13 7 14 5 
13 3 14 1 14 -1 13 -3 14 -4 14 -7 13 -8 14 -10 
13 -11 14 -14 14 -15 13 -16 14 -18 14 -19 13 -21 14 -22 
14 -23 13 -24 14 -25 13 -26 14 -27 14 -27 13 -28 14 -28 
14 -29 13 -29 14 -29 13 -30 14 -29 14 -30 13 -29 14 -29 
14 -30 13 -29 14 -28 14 -28 13 -28 14 -28 13 -27 14 -27 
14 -26 13 -26 14 -26 2711 2978 100 MP stroke
14 -25 13 -25 14 -24 14 -24 13 -23 14 -23 13 -23 14 -23 
14 -22 13 -21 14 -22 14 -21 13 -21 14 -20 13 -20 14 -20 
12 -17 2481 3352 18 MP stroke
12 6 14 8 13 7 14 8 14 7 13 7 14 7 14 7 
13 5 14 6 13 4 14 3 14 2 13 1 14 0 14 -2 
13 -3 14 -5 13 -6 14 -8 14 -10 13 -11 14 -12 14 -14 
6 -7 7667 3352 26 MP stroke
gr

c8
0 sg
%%IncludeResource: font Helvetica
/Helvetica /WindowsLatin1Encoding 192 FMSR

4113 3737 mt 
(temps en ms) s

end %%Color Dict

eplot
%%EndObject

epage
end

showpage

%%Trailer
%%EOF
